<?xml version="1.0" encoding="UTF-8" standalone="no"?>
<!-- Created with Inkscape (http://www.inkscape.org/) -->

<svg
   xmlns:osb="http://www.openswatchbook.org/uri/2009/osb"
   xmlns:dc="http://purl.org/dc/elements/1.1/"
   xmlns:cc="http://creativecommons.org/ns#"
   xmlns:rdf="http://www.w3.org/1999/02/22-rdf-syntax-ns#"
   xmlns:svg="http://www.w3.org/2000/svg"
   xmlns="http://www.w3.org/2000/svg"
   xmlns:xlink="http://www.w3.org/1999/xlink"
   xmlns:sodipodi="http://sodipodi.sourceforge.net/DTD/sodipodi-0.dtd"
   xmlns:inkscape="http://www.inkscape.org/namespaces/inkscape"
   width="176.25464"
   height="141.04652"
   id="svg3868"
   version="1.1"
   inkscape:version="0.92.4 5da689c313, 2019-01-14"
   sodipodi:docname="5G-LENA_logo.svg"
   inkscape:export-filename="/home/nicola/svn/ip-pr-lena/linkedin/LENA_logo_3_588x470_whitebkg_margins.png"
   inkscape:export-xdpi="300"
   inkscape:export-ydpi="300">
  <defs
     id="defs3870">
    <linearGradient
       id="linearGradient5255"
       osb:paint="solid">
      <stop
         style="stop-color:#000000;stop-opacity:1;"
         offset="0"
         id="stop5257" />
    </linearGradient>
    <linearGradient
       id="linearGradient5225"
       osb:paint="solid">
      <stop
         style="stop-color:#000000;stop-opacity:1;"
         offset="0"
         id="stop5227" />
    </linearGradient>
    <inkscape:perspective
       sodipodi:type="inkscape:persp3d"
       inkscape:vp_x="0 : 526.18109 : 1"
       inkscape:vp_y="0 : 1000 : 0"
       inkscape:vp_z="744.09448 : 526.18109 : 1"
       inkscape:persp3d-origin="372.04724 : 350.78739 : 1"
       id="perspective3876" />
    <inkscape:perspective
       id="perspective3661"
       inkscape:persp3d-origin="0.5 : 0.33333333 : 1"
       inkscape:vp_z="1 : 0.5 : 1"
       inkscape:vp_y="0 : 1000 : 0"
       inkscape:vp_x="0 : 0.5 : 1"
       sodipodi:type="inkscape:persp3d" />
    <linearGradient
       inkscape:collect="always"
       xlink:href="#linearGradient5255"
       id="linearGradient5259"
       x1="1.375"
       y1="88.753677"
       x2="20.374998"
       y2="88.753677"
       gradientUnits="userSpaceOnUse" />
  </defs>
  <sodipodi:namedview
     id="base"
     pagecolor="#ffffff"
     bordercolor="#666666"
     borderopacity="1.0"
     inkscape:pageopacity="1"
     inkscape:pageshadow="2"
     inkscape:zoom="2.8284272"
     inkscape:cx="167.72559"
     inkscape:cy="67.850169"
     inkscape:document-units="px"
     inkscape:current-layer="layer1"
     showgrid="false"
     units="px"
     inkscape:window-width="1680"
     inkscape:window-height="953"
     inkscape:window-x="0"
     inkscape:window-y="27"
     inkscape:window-maximized="1"
     fit-margin-top="8"
     fit-margin-left="31"
     fit-margin-right="31"
     fit-margin-bottom="8"
     inkscape:snap-grids="true" />
  <metadata
     id="metadata3873">
    <rdf:RDF>
      <cc:Work
         rdf:about="">
        <dc:format>image/svg+xml</dc:format>
        <dc:type
           rdf:resource="http://purl.org/dc/dcmitype/StillImage" />
        <dc:title></dc:title>
      </cc:Work>
    </rdf:RDF>
  </metadata>
  <g
     inkscape:label="Layer 1"
     inkscape:groupmode="layer"
     id="layer1"
     transform="translate(-221.22526,-486.40916)">
    <path
       inkscape:connector-curvature="0"
       d="m 265.24184,543.59907 c 0.30382,-6.20615 3.2501,-11.46894 6.90214,-12.08274 v 0 c 4.05871,-0.67278 7.74816,4.51138 7.83229,12.03589 v 0 l 7.04705,-0.0242 v 0 c -0.29292,-7.04525 -2.41654,-12.79787 -5.37993,-16.3356 v 0 c -2.67829,-3.20061 -5.98291,-4.54768 -9.32335,-3.63755 v 0 c -5.8785,1.60711 -10.51681,10.1869 -11.1743,20.05631 v 0 l 4.0961,-0.0113 z"
       id="path369"
       style="fill:#fcbac4;fill-opacity:1;stroke-width:1.88921905" />
    <path
       inkscape:connector-curvature="0"
       d="m 260.23949,543.63196 c 0.80506,-10.21479 5.55912,-19.25841 11.70966,-21.45267 v 0 c 3.62722,-1.29211 7.37273,-0.21226 10.51285,2.9989 v 0 c 3.61707,3.68755 6.39853,10.12348 6.96958,18.36244 v 0 l 6.53843,-0.0197 v 0 c -0.57614,-5.69298 -2.00185,-10.70721 -3.9541,-14.81928 v 0 c -1.78308,-3.77517 -3.99478,-6.72964 -6.41379,-8.78814 v 0 c -4.22752,-3.62584 -9.03627,-4.49836 -13.54741,-2.53119 v 0 c -7.37784,3.2013 -12.9713,14.1109 -14.07397,26.25338 v 0 l 2.25875,-0.003 z"
       id="path371"
       style="fill:#fe94a0;fill-opacity:1;stroke-width:1.54215491" />
    <path
       inkscape:connector-curvature="0"
       d="m 257.00724,543.61237 c 1.312,-12.77775 7.14323,-24.44364 14.98086,-28.5487 v 0 c 2.38567,-1.25087 4.87445,-1.8246 7.37699,-1.71562 v 0 c 2.76608,0.1167 5.58144,1.07294 8.2845,2.90088 v 0 c 3.0388,2.05478 5.92176,5.20363 8.36587,9.44656 v 0 c 2.73513,4.73885 4.86985,10.74969 5.92174,17.77679 v 0 l 6.81209,-0.0178 v 0 c -0.82386,-4.36969 -2.00066,-8.38692 -3.45129,-12.01388 v 0 c -1.36128,-3.41348 -2.94944,-6.44559 -4.69571,-9.08185 v 0 c -3.15567,-4.76888 -6.76739,-8.1779 -10.46964,-10.27603 v 0 c -3.24505,-1.83683 -6.5577,-2.66628 -9.76609,-2.57178 v 0 c -2.85088,0.0956 -5.64904,0.92064 -8.30741,2.46282 v 0 c -8.57097,4.95566 -14.86972,17.75565 -16.4086,31.64529 v 0 l 1.35669,-0.007 z"
       id="path373"
       style="fill:#fe6b82;fill-opacity:1;stroke-width:1.38941026" />
    <path
       inkscape:connector-curvature="0"
       d="m 254.86205,543.61147 c 0.94322,-7.65113 2.9681,-14.49633 5.65827,-20.0233 v 0 c 2.82967,-5.83311 6.82361,-11.055 11.82517,-14.40679 v 0 c 2.92195,-1.95652 6.05316,-3.21748 9.31849,-3.70999 v 0 c 3.74714,-0.56957 7.74216,-0.14681 11.78225,1.41923 v 0 c 2.28455,0.88715 4.58198,2.13561 6.85796,3.78288 v 0 c 2.482,1.78991 4.92965,4.04319 7.27215,6.78897 v 0 c 2.55712,2.98944 4.97151,6.55261 7.13052,10.68119 v 0 c 2.35108,4.48259 4.37167,9.59099 5.93082,15.2606 v 0 l 7.52433,-0.0239 v 0 c -2.07531,-6.50368 -4.69466,-12.292 -7.65417,-17.31084 v 0 c -2.70412,-4.56382 -5.66256,-8.43937 -8.74011,-11.64956 v 0 c -2.79533,-2.89989 -5.67973,-5.24687 -8.56305,-7.06907 v 0 c -2.62794,-1.64726 -5.25588,-2.86344 -7.83445,-3.68083 v 0 c -4.52296,-1.43588 -8.93219,-1.64309 -13.00661,-0.82571 v 0 c -3.52501,0.70805 -6.87405,2.19601 -9.98058,4.38888 v 0 c -5.25264,3.71727 -9.41399,9.29423 -12.3735,15.43138 v 0 c -2.79212,5.80396 -4.92108,12.95425 -5.93941,20.9469 v 0 z"
       id="path375"
       style="fill:#ff255e;fill-opacity:1;stroke-width:1.30115235" />
    <path
       style="fill:#ee0734;fill-opacity:1;stroke-width:1.24068737"
       id="path377"
       d="m 252.66012,543.61032 c 1.16748,-8.42348 3.42158,-15.94444 6.32338,-22.11808 v 0 c 1.52661,-3.23873 3.31311,-6.30967 5.34825,-9.08671 v 0 c 2.19067,-2.99846 4.76811,-5.78643 7.74972,-8.17923 v 0 c 3.39701,-2.71847 7.13066,-4.7747 11.15081,-6.07337 v 0 c 2.28174,-0.74067 4.67194,-1.24108 7.17058,-1.48135 v 0 c 2.75343,-0.26808 5.64396,-0.20155 8.64501,0.21346 v 0 c 3.34177,0.46565 6.84315,1.39597 10.44788,2.84654 v 0 c 4.05699,1.63327 8.25722,3.94467 12.48611,7.01958 v 0 c 4.79982,3.50184 9.64057,7.98562 14.29306,13.55461 v 0 c 2.56208,3.06399 5.05971,6.44171 7.454,10.14609 v 0 c 2.54981,3.9407 4.97172,8.22988 7.20229,12.86061 v 0 l 8.60511,-0.0268 v 0 c -2.74218,-5.11127 -5.67978,-9.81647 -8.74119,-14.10962 v 0 c -2.8537,-4.00622 -5.81177,-7.64012 -8.82509,-10.90963 v 0 c -2.79026,-3.04114 -5.62759,-5.75961 -8.4731,-8.17127 v 0 c -2.65009,-2.24984 -5.292,-4.22763 -7.91753,-5.95323 v 0 c -4.73638,-3.11462 -9.39295,-5.40219 -13.85308,-6.96198 v 0 c -3.93317,-1.38109 -7.73027,-2.2141 -11.32272,-2.56359 v 0 c -3.21387,-0.31771 -6.29063,-0.2641 -9.2006,0.1201 v 0 c -2.63372,0.33758 -5.15181,0.94223 -7.53791,1.78816 v 0 c -4.18897,1.47341 -8.0577,3.70339 -11.55908,6.58568 v 0 c -3.0655,2.52486 -5.70331,5.43793 -7.94207,8.53666 v 0 c -2.07812,2.87435 -3.89736,6.0267 -5.45161,9.35082 v 0 c -2.95397,6.32555 -5.26026,14.00834 -6.48708,22.61849 v 0 l 0.43486,-0.006 z"
       inkscape:connector-curvature="0" />
    <text
       xml:space="preserve"
       style="font-style:normal;font-variant:normal;font-weight:normal;font-stretch:normal;line-height:0%;font-family:'Arial Black';-inkscape-font-specification:'Arial Black,';text-align:start;letter-spacing:0px;word-spacing:0px;writing-mode:lr-tb;text-anchor:start;fill:#3d4e7f;fill-opacity:1;stroke:none"
       x="285.69989"
       y="568.27441"
       id="text3111"
       transform="scale(0.98464438,1.0155951)"><tspan
         sodipodi:role="line"
         id="tspan3903"
         x="285.69989"
         y="568.27441"
         style="font-style:normal;font-variant:normal;font-weight:bold;font-stretch:normal;font-size:39.80566788px;line-height:1.25;font-family:'GFS Solomos';-inkscape-font-specification:'GFS Solomos Bold';fill:#3d4e7f;fill-opacity:1">LENA</tspan></text>
    <text
       xml:space="preserve"
       style="font-style:normal;font-variant:normal;font-weight:normal;font-stretch:normal;line-height:0%;font-family:'Arial Black';-inkscape-font-specification:'Arial Black,';text-align:start;letter-spacing:0px;word-spacing:0px;writing-mode:lr-tb;text-anchor:start;fill:#000000;fill-opacity:1;stroke:none"
       x="268.7861"
       y="652.66406"
       id="text3924"
       transform="scale(1.1012482,0.90806052)"><tspan
         sodipodi:role="line"
         id="tspan3008"
         x="268.7861"
         y="652.66406"
         style="font-size:11.74679661px;line-height:1.25">5G NR</tspan><tspan
         sodipodi:role="line"
         id="tspan3010"
         x="268.7861"
         y="667.34753"
         style="font-size:11.74679661px;line-height:1.25">Network</tspan><tspan
         sodipodi:role="line"
         id="tspan3012"
         x="268.7861"
         y="682.03107"
         style="font-size:11.74679661px;line-height:1.25">Simulator</tspan></text>
    <text
       xml:space="preserve"
       style="font-style:normal;font-variant:normal;font-weight:normal;font-stretch:normal;font-size:11.5094223px;line-height:0%;font-family:'Arial Black';-inkscape-font-specification:'Arial Black,';text-align:start;letter-spacing:0px;word-spacing:0px;writing-mode:lr-tb;text-anchor:start;fill:#3d4e7f;fill-opacity:1;stroke:none;stroke-width:0.95911849"
       x="223.13347"
       y="567.73383"
       id="text3111-3"
       transform="scale(0.98464438,1.0155951)"><tspan
         sodipodi:role="line"
         id="tspan3903-6"
         x="223.13347"
         y="567.73383"
         style="font-style:normal;font-variant:normal;font-weight:bold;font-stretch:normal;font-size:38.17803192px;line-height:1.25;font-family:'GFS Solomos';-inkscape-font-specification:'GFS Solomos, Bold';font-variant-ligatures:normal;font-variant-caps:normal;font-variant-numeric:normal;font-feature-settings:normal;text-align:start;writing-mode:lr-tb;text-anchor:start;fill:#3d4e7f;fill-opacity:1;stroke-width:0.95911849">5G</tspan></text>
    <text
       xml:space="preserve"
       style="font-style:normal;font-weight:normal;font-size:40px;line-height:1.25;font-family:sans-serif;letter-spacing:0px;word-spacing:0px;fill:#000000;fill-opacity:1;stroke:none"
       x="158.64632"
       y="548.61328"
       id="text877"><tspan
         sodipodi:role="line"
         id="tspan875"
         x="158.64632"
         y="584.00391" /></text>
    <text
       xml:space="preserve"
       style="font-style:normal;font-variant:normal;font-weight:normal;font-stretch:normal;line-height:0%;font-family:'Arial Black';-inkscape-font-specification:'Arial Black,';text-align:start;letter-spacing:0px;word-spacing:0px;writing-mode:lr-tb;text-anchor:start;fill:#3d4e7f;fill-opacity:1;stroke:none"
       x="278.72406"
       y="561.06989"
       id="text3111-3-5"
       transform="scale(0.98464438,1.0155951)"><tspan
         sodipodi:role="line"
         id="tspan3903-6-4"
         x="278.72406"
         y="561.06989"
         style="font-style:normal;font-variant:normal;font-weight:normal;font-stretch:normal;font-size:26.66666603px;line-height:1.25;font-family:'GFS Solomos';-inkscape-font-specification:'GFS Solomos, Normal';font-variant-ligatures:normal;font-variant-caps:normal;font-variant-numeric:normal;font-feature-settings:normal;text-align:start;writing-mode:lr-tb;text-anchor:start;fill:#3d4e7f;fill-opacity:1">-</tspan></text>
  </g>
</svg>
