<?xml version="1.0" encoding="UTF-8" standalone="no"?>
<!-- Created with Inkscape (http://www.inkscape.org/) -->

<svg
   xmlns:osb="http://www.openswatchbook.org/uri/2009/osb"
   xmlns:dc="http://purl.org/dc/elements/1.1/"
   xmlns:cc="http://creativecommons.org/ns#"
   xmlns:rdf="http://www.w3.org/1999/02/22-rdf-syntax-ns#"
   xmlns:svg="http://www.w3.org/2000/svg"
   xmlns="http://www.w3.org/2000/svg"
   xmlns:xlink="http://www.w3.org/1999/xlink"
   xmlns:sodipodi="http://sodipodi.sourceforge.net/DTD/sodipodi-0.dtd"
   xmlns:inkscape="http://www.inkscape.org/namespaces/inkscape"
   width="176.25464"
   height="141.04652"
   id="svg3868"
   version="1.1"
   inkscape:version="0.48.3.1 r9886"
   sodipodi:docname="LENA_logo_3.svg"
   inkscape:export-filename="/home/nicola/svn/ip-pr-lena/linkedin/LENA_logo_3_588x470_whitebkg_margins.png"
   inkscape:export-xdpi="300"
   inkscape:export-ydpi="300">
  <defs
     id="defs3870">
    <linearGradient
       id="linearGradient5255"
       osb:paint="solid">
      <stop
         style="stop-color:#000000;stop-opacity:1;"
         offset="0"
         id="stop5257" />
    </linearGradient>
    <linearGradient
       id="linearGradient5225"
       osb:paint="solid">
      <stop
         style="stop-color:#000000;stop-opacity:1;"
         offset="0"
         id="stop5227" />
    </linearGradient>
    <inkscape:perspective
       sodipodi:type="inkscape:persp3d"
       inkscape:vp_x="0 : 526.18109 : 1"
       inkscape:vp_y="0 : 1000 : 0"
       inkscape:vp_z="744.09448 : 526.18109 : 1"
       inkscape:persp3d-origin="372.04724 : 350.78739 : 1"
       id="perspective3876" />
    <inkscape:perspective
       id="perspective3661"
       inkscape:persp3d-origin="0.5 : 0.33333333 : 1"
       inkscape:vp_z="1 : 0.5 : 1"
       inkscape:vp_y="0 : 1000 : 0"
       inkscape:vp_x="0 : 0.5 : 1"
       sodipodi:type="inkscape:persp3d" />
    <linearGradient
       inkscape:collect="always"
       xlink:href="#linearGradient5255"
       id="linearGradient5259"
       x1="1.375"
       y1="88.753677"
       x2="20.374998"
       y2="88.753677"
       gradientUnits="userSpaceOnUse" />
  </defs>
  <sodipodi:namedview
     id="base"
     pagecolor="#ffffff"
     bordercolor="#666666"
     borderopacity="1.0"
     inkscape:pageopacity="1"
     inkscape:pageshadow="2"
     inkscape:zoom="2.8284272"
     inkscape:cx="-3.6649122"
     inkscape:cy="66.810522"
     inkscape:document-units="px"
     inkscape:current-layer="layer1"
     showgrid="false"
     units="px"
     inkscape:window-width="1464"
     inkscape:window-height="808"
     inkscape:window-x="129"
     inkscape:window-y="70"
     inkscape:window-maximized="0"
     fit-margin-top="8"
     fit-margin-left="31"
     fit-margin-right="31"
     fit-margin-bottom="8" />
  <metadata
     id="metadata3873">
    <rdf:RDF>
      <cc:Work
         rdf:about="">
        <dc:format>image/svg+xml</dc:format>
        <dc:type
           rdf:resource="http://purl.org/dc/dcmitype/StillImage" />
        <dc:title></dc:title>
      </cc:Work>
    </rdf:RDF>
  </metadata>
  <g
     inkscape:label="Layer 1"
     inkscape:groupmode="layer"
     id="layer1"
     transform="translate(-221.22526,-486.40916)">
    <path
       inkscape:connector-curvature="0"
       d="m 264.02099,534.03352 c 0.16082,-3.28504 1.72034,-6.07073 3.65344,-6.39563 l 0,0 c 2.14835,-0.35612 4.10125,2.38796 4.14578,6.37083 l 0,0 3.73014,-0.0128 0,0 c -0.15505,-3.72919 -1.27912,-6.77416 -2.8477,-8.64675 l 0,0 c -1.41767,-1.69414 -3.16687,-2.40717 -4.93503,-1.92542 l 0,0 c -3.1116,0.85067 -5.56675,5.39212 -5.91477,10.61619 l 0,0 2.16814,-0.006 z"
       id="path369"
       style="fill:#fcbac4;fill-opacity:1" />
    <path
       inkscape:connector-curvature="0"
       d="m 260.2455,534.04313 c 0.52204,-6.62371 3.60478,-12.48798 7.59305,-13.91084 l 0,0 c 2.35205,-0.83786 4.7808,-0.13764 6.81699,1.94462 l 0,0 c 2.34546,2.39117 4.14908,6.5645 4.51938,11.907 l 0,0 4.2398,-0.0128 0,0 c -0.3736,-3.69157 -1.29809,-6.94301 -2.56401,-9.60946 l 0,0 c -1.15623,-2.44798 -2.59039,-4.36379 -4.15898,-5.69861 l 0,0 c -2.74131,-2.35115 -5.85951,-2.91693 -8.78473,-1.64133 l 0,0 c -4.78411,2.07586 -8.41115,9.15012 -9.12617,17.02383 l 0,0 1.46467,-0.002 z"
       id="path371"
       style="fill:#fe94a0;fill-opacity:1" />
    <path
       inkscape:connector-curvature="0"
       d="m 257.20152,534.05273 c 0.94429,-9.19653 5.1412,-17.59281 10.78217,-20.54735 l 0,0 c 1.71704,-0.90029 3.50829,-1.31322 5.30944,-1.23479 l 0,0 c 1.99084,0.084 4.01713,0.77224 5.96261,2.08786 l 0,0 c 2.18711,1.47888 4.26206,3.7452 6.02116,6.79897 l 0,0 c 1.96856,3.41069 3.50498,7.73687 4.26206,12.79448 l 0,0 4.90286,-0.0128 0,0 c -0.59296,-3.145 -1.43993,-6.03632 -2.484,-8.64675 l 0,0 c -0.97975,-2.45678 -2.12279,-4.63908 -3.37964,-6.53648 l 0,0 c -2.27123,-3.4323 -4.87069,-5.88588 -7.53531,-7.39596 l 0,0 c -2.33556,-1.32202 -4.71978,-1.91901 -7.02895,-1.85099 l 0,0 c -2.05186,0.0688 -4.06578,0.66261 -5.97909,1.77256 l 0,0 c -6.16878,3.56674 -10.70218,12.77928 -11.80976,22.77606 l 0,0 0.97645,-0.005 z"
       id="path373"
       style="fill:#fe6b82;fill-opacity:1" />
    <path
       inkscape:connector-curvature="0"
       d="m 254.67876,534.06553 c 0.72491,-5.88027 2.28113,-11.14115 4.34866,-15.3889 l 0,0 c 2.17474,-4.48303 5.24428,-8.49631 9.08823,-11.07233 l 0,0 c 2.24566,-1.50368 4.65215,-2.47279 7.16172,-2.85131 l 0,0 c 2.87986,-0.43774 5.95023,-0.11283 9.05524,1.09075 l 0,0 c 1.75579,0.68182 3.52148,1.64132 5.27068,2.90733 l 0,0 c 1.90754,1.37563 3.78868,3.10739 5.58901,5.21766 l 0,0 c 1.96527,2.29753 3.82085,5.036 5.48016,8.20902 l 0,0 c 1.80692,3.44509 3.35984,7.37115 4.55813,11.72853 l 0,0 5.78282,-0.0184 0,0 c -1.59498,-4.9984 -3.60808,-9.44701 -5.88261,-13.30424 l 0,0 c -2.07825,-3.50752 -4.35196,-6.48607 -6.71721,-8.95326 l 0,0 c -2.14835,-2.22871 -4.36515,-4.03248 -6.58113,-5.43293 l 0,0 c -2.0197,-1.266 -4.0394,-2.2007 -6.02116,-2.8289 l 0,0 c -3.47612,-1.10355 -6.86483,-1.2628 -9.99622,-0.6346 l 0,0 c -2.70915,0.54417 -5.28305,1.68774 -7.67057,3.37307 l 0,0 c -4.03692,2.85691 -7.23512,7.14308 -9.50965,11.85978 l 0,0 c -2.14588,4.46063 -3.78209,9.95598 -4.56473,16.09873 l 0,0 h 0.60863 z"
       id="path375"
       style="fill:#ff255e;fill-opacity:1" />
    <path
       style="fill:#ee0734;fill-opacity:1"
       id="path377"
       d="m 252.57576,534.06553 c 0.94099,-6.78936 2.75781,-12.85129 5.09667,-17.82728 l 0,0 c 1.23046,-2.61043 2.67039,-5.08562 4.31072,-7.32393 l 0,0 c 1.76569,-2.41677 3.84312,-4.66389 6.24631,-6.5925 l 0,0 c 2.73801,-2.1911 5.74735,-3.84843 8.98761,-4.89516 l 0,0 c 1.83909,-0.59699 3.7656,-1.00032 5.77952,-1.19398 l 0,0 c 2.21928,-0.21607 4.54906,-0.16245 6.96792,0.17205 l 0,0 c 2.69348,0.37532 5.51561,1.12516 8.42104,2.29433 l 0,0 c 3.26995,1.31642 6.65536,3.17942 10.06386,5.65781 l 0,0 c 3.86868,2.8225 7.77035,6.43645 11.52028,10.92508 l 0,0 c 2.06505,2.46959 4.07815,5.19205 6.00796,8.1778 l 0,0 c 2.05516,3.17622 4.00723,6.63332 5.80508,10.36571 l 0,0 6.93576,-0.0216 0,0 c -2.21021,-4.11971 -4.57793,-7.91212 -7.04544,-11.37242 l 0,0 c -2.3001,-3.22903 -4.68432,-6.15797 -7.11307,-8.79321 l 0,0 c -2.24896,-2.45118 -4.53586,-4.64228 -6.82936,-6.58609 l 0,0 c -2.13598,-1.81338 -4.26537,-3.40749 -6.38156,-4.79833 l 0,0 c -3.81755,-2.5104 -7.57077,-4.35419 -11.16565,-5.61139 l 0,0 c -3.17016,-1.11316 -6.23064,-1.78457 -9.12617,-2.06626 l 0,0 c -2.59039,-0.25608 -5.07028,-0.21287 -7.41573,0.0968 l 0,0 c -2.12279,0.27209 -4.15238,0.75944 -6.07559,1.44126 l 0,0 c -3.37633,1.18758 -6.49454,2.98495 -9.31667,5.30809 l 0,0 c -2.47081,2.03505 -4.5969,4.383 -6.40135,6.88059 l 0,0 c -1.67497,2.31674 -3.14129,4.85755 -4.39402,7.53681 l 0,0 c -2.38092,5.09842 -4.2398,11.29079 -5.22862,18.23061 l 0,0 0.3505,-0.005 z"
       inkscape:connector-curvature="0" />
    <text
       xml:space="preserve"
       style="font-size:39.80566788px;font-style:normal;font-variant:normal;font-weight:normal;font-stretch:normal;text-align:start;line-height:125%;letter-spacing:0px;word-spacing:0px;writing-mode:lr-tb;text-anchor:start;fill:#3d4e7f;fill-opacity:1;stroke:none;font-family:Arial Black;-inkscape-font-specification:'Arial Black,'"
       x="281.01923"
       y="565.61127"
       id="text3111"
       sodipodi:linespacing="125%"
       transform="scale(0.98464438,1.0155951)"><tspan
         sodipodi:role="line"
         id="tspan3903"
         x="281.01923"
         y="565.61127"
         style="font-style:normal;font-variant:normal;font-weight:bold;font-stretch:normal;fill:#3d4e7f;fill-opacity:1;font-family:GFS Solomos;-inkscape-font-specification:GFS Solomos Bold">ENA</tspan></text>
    <text
       xml:space="preserve"
       style="font-size:11.74679661px;font-style:normal;font-variant:normal;font-weight:normal;font-stretch:normal;text-align:start;line-height:125%;letter-spacing:0px;word-spacing:0px;writing-mode:lr-tb;text-anchor:start;fill:#000000;fill-opacity:1;stroke:none;font-family:Arial Black;-inkscape-font-specification:'Arial Black,'"
       x="268.7861"
       y="652.66406"
       id="text3924"
       sodipodi:linespacing="125%"
       transform="scale(1.1012482,0.90806052)"><tspan
         sodipodi:role="line"
         id="tspan3008"
         x="268.7861"
         y="652.66406">LTE-EPC</tspan><tspan
         sodipodi:role="line"
         id="tspan3010"
         x="268.7861"
         y="667.34753">Network</tspan><tspan
         sodipodi:role="line"
         id="tspan3012"
         x="268.7861"
         y="682.03107">simulAtor</tspan></text>
    <rect
       style="fill:#3d4e7f;fill-opacity:1;stroke:none"
       id="rect5441"
       width="1.875"
       height="30"
       x="254.9837"
       y="544.82831" />
    <rect
       style="fill:#3d4e7f;fill-opacity:1;stroke:none"
       id="rect5443"
       width="15.9375"
       height="1.875"
       x="256.6712"
       y="572.97919" />
  </g>
</svg>
