<?xml version="1.0" encoding="UTF-8" standalone="no"?>
<!-- Created with Inkscape (http://www.inkscape.org/) -->

<svg
   xmlns:osb="http://www.openswatchbook.org/uri/2009/osb"
   xmlns:dc="http://purl.org/dc/elements/1.1/"
   xmlns:cc="http://creativecommons.org/ns#"
   xmlns:rdf="http://www.w3.org/1999/02/22-rdf-syntax-ns#"
   xmlns:svg="http://www.w3.org/2000/svg"
   xmlns="http://www.w3.org/2000/svg"
   xmlns:xlink="http://www.w3.org/1999/xlink"
   xmlns:sodipodi="http://sodipodi.sourceforge.net/DTD/sodipodi-0.dtd"
   xmlns:inkscape="http://www.inkscape.org/namespaces/inkscape"
   width="3.75in"
   height="2.5in"
   viewBox="0 0 95.25 63.500002"
   version="1.1"
   id="svg8932"
   inkscape:version="0.92.2 2405546, 2018-03-11"
   sodipodi:docname="drawing-1.svg">
  <defs
     id="defs8926">
    <linearGradient
       inkscape:collect="always"
       xlink:href="#linearGradient2400"
       id="linearGradient2388-4-6"
       x1="17.088722"
       y1="-127.8774"
       x2="88.707748"
       y2="-127.8774"
       gradientUnits="userSpaceOnUse"
       gradientTransform="matrix(0.34825183,0,0,0.68971459,30.001676,354.76116)" />
    <linearGradient
       id="linearGradient2400"
       osb:paint="solid">
      <stop
         style="stop-color:#000000;stop-opacity:1;"
         offset="0"
         id="stop2398" />
    </linearGradient>
    <linearGradient
       inkscape:collect="always"
       xlink:href="#linearGradient2400"
       id="linearGradient2388-4"
       x1="17.088722"
       y1="-127.8774"
       x2="88.707748"
       y2="-127.8774"
       gradientUnits="userSpaceOnUse"
       gradientTransform="matrix(0.39481527,0,0,0.72029741,59.482583,357.48649)" />
    <linearGradient
       inkscape:collect="always"
       xlink:href="#linearGradient2400"
       id="linearGradient2402-6-9-94-0"
       x1="16.971281"
       y1="-108.75"
       x2="87.968674"
       y2="-108.75"
       gradientUnits="userSpaceOnUse"
       gradientTransform="matrix(0.35346682,0,0,0.23392511,-3.1312212,296.04455)" />
    <linearGradient
       inkscape:collect="always"
       xlink:href="#linearGradient2400"
       id="linearGradient2402-6-9-9-3"
       x1="16.971281"
       y1="-108.75"
       x2="87.968674"
       y2="-108.75"
       gradientUnits="userSpaceOnUse"
       gradientTransform="matrix(0.35350296,0,0,0.22836599,-2.9994804,285.83165)" />
    <linearGradient
       inkscape:collect="always"
       xlink:href="#linearGradient2400"
       id="linearGradient2402-6-9-2"
       x1="16.971281"
       y1="-108.75"
       x2="87.968674"
       y2="-108.75"
       gradientUnits="userSpaceOnUse"
       gradientTransform="matrix(0.35350296,0,0,0.22836599,-2.9994804,278.98067)" />
    <linearGradient
       inkscape:collect="always"
       xlink:href="#linearGradient2400"
       id="linearGradient2402-5-6-0"
       x1="16.971281"
       y1="-108.75"
       x2="87.968674"
       y2="-108.75"
       gradientUnits="userSpaceOnUse"
       gradientTransform="matrix(0.35350296,0,0,0.22836599,-2.9994759,272.12973)" />
    <linearGradient
       inkscape:collect="always"
       xlink:href="#linearGradient2400"
       id="linearGradient2388-6-1"
       x1="17.088722"
       y1="-127.8774"
       x2="88.707748"
       y2="-127.8774"
       gradientUnits="userSpaceOnUse"
       gradientTransform="matrix(0.39354561,0,0,0.7236026,-5.0431231,358.06143)" />
    <linearGradient
       inkscape:collect="always"
       xlink:href="#linearGradient2400"
       id="linearGradient2402-6-9-94-0-5"
       x1="16.971281"
       y1="-108.75"
       x2="87.968674"
       y2="-108.75"
       gradientUnits="userSpaceOnUse"
       gradientTransform="matrix(0.35346682,0,0,0.23392511,-4.0761617,309.81864)" />
    <linearGradient
       inkscape:collect="always"
       xlink:href="#linearGradient2400"
       id="linearGradient2402-6-9-94-0-9"
       x1="16.971281"
       y1="-108.75"
       x2="87.968674"
       y2="-108.75"
       gradientUnits="userSpaceOnUse"
       gradientTransform="matrix(0.35346682,0,0,0.23392511,-4.0761626,316.83641)" />
    <linearGradient
       inkscape:collect="always"
       xlink:href="#linearGradient2400"
       id="linearGradient2402-6-9-94-0-9-1"
       x1="16.971281"
       y1="-108.75"
       x2="87.968674"
       y2="-108.75"
       gradientUnits="userSpaceOnUse"
       gradientTransform="matrix(0.35346682,0,0,0.23392511,63.40171,316.40214)" />
    <linearGradient
       inkscape:collect="always"
       xlink:href="#linearGradient2400"
       id="linearGradient2402-6-9-94-0-5-9"
       x1="16.971281"
       y1="-108.75"
       x2="87.968674"
       y2="-108.75"
       gradientUnits="userSpaceOnUse"
       gradientTransform="matrix(0.35346682,0,0,0.23392511,63.401711,309.38437)" />
    <linearGradient
       inkscape:collect="always"
       xlink:href="#linearGradient2400"
       id="linearGradient2402-6-9-94-0-7"
       x1="16.971281"
       y1="-108.75"
       x2="87.968674"
       y2="-108.75"
       gradientUnits="userSpaceOnUse"
       gradientTransform="matrix(0.35346682,0,0,0.23392511,61.548816,295.05839)" />
    <linearGradient
       inkscape:collect="always"
       xlink:href="#linearGradient2400"
       id="linearGradient2402-6-9-9-3-7"
       x1="16.971281"
       y1="-108.75"
       x2="87.968674"
       y2="-108.75"
       gradientUnits="userSpaceOnUse"
       gradientTransform="matrix(0.35350296,0,0,0.22836599,61.680557,284.84549)" />
    <linearGradient
       inkscape:collect="always"
       xlink:href="#linearGradient2400"
       id="linearGradient2402-6-9-2-6"
       x1="16.971281"
       y1="-108.75"
       x2="87.968674"
       y2="-108.75"
       gradientUnits="userSpaceOnUse"
       gradientTransform="matrix(0.35350296,0,0,0.22836599,61.680557,277.99451)" />
    <linearGradient
       inkscape:collect="always"
       xlink:href="#linearGradient2400"
       id="linearGradient2402-5-6-0-7"
       x1="16.971281"
       y1="-108.75"
       x2="87.968674"
       y2="-108.75"
       gradientUnits="userSpaceOnUse"
       gradientTransform="matrix(0.35350296,0,0,0.22836599,61.680562,271.14357)" />
  </defs>
  <sodipodi:namedview
     id="base"
     pagecolor="#ffffff"
     bordercolor="#666666"
     borderopacity="1.0"
     inkscape:pageopacity="0.0"
     inkscape:pageshadow="2"
     inkscape:zoom="1.979899"
     inkscape:cx="119.87235"
     inkscape:cy="94.124763"
     inkscape:document-units="mm"
     inkscape:current-layer="layer1"
     showgrid="false"
     units="in"
     inkscape:window-width="1920"
     inkscape:window-height="983"
     inkscape:window-x="0"
     inkscape:window-y="27"
     inkscape:window-maximized="1"
     showguides="false"
     inkscape:snap-nodes="true" />
  <metadata
     id="metadata8929">
    <rdf:RDF>
      <cc:Work
         rdf:about="">
        <dc:format>image/svg+xml</dc:format>
        <dc:type
           rdf:resource="http://purl.org/dc/dcmitype/StillImage" />
        <dc:title />
      </cc:Work>
    </rdf:RDF>
  </metadata>
  <g
     inkscape:label="Layer 1"
     inkscape:groupmode="layer"
     id="layer1"
     transform="translate(0,-233.49998)">
    <path
       style="fill:none;stroke:url(#linearGradient2388-6-1);stroke-width:0.26800001;stroke-miterlimit:4;stroke-dasharray:0.268, 0.268;stroke-dashoffset:0"
       d="M 1.6820643,234.96272 H 29.867417 v 61.13254 H 1.6820643 Z"
       id="rect1577-1-5" />
    <g
       aria-label="NRGnb"
       style="font-style:normal;font-weight:normal;font-size:10.58333302px;line-height:1.25;font-family:sans-serif;letter-spacing:0px;word-spacing:0px;fill:#000000;fill-opacity:1;stroke:none;stroke-width:0.26458332"
       id="text2392-8-4">
      <path
         d="m 7.089517,237.09135 h 0.6559462 l 1.5964571,3.01205 v -3.01205 h 0.4726671 v 3.60047 H 9.1586412 l -1.5964571,-3.01205 v 3.01205 H 7.089517 Z"
         style="font-size:4.93888855px;stroke-width:0.26458332"
         id="path3937" />
      <path
         d="m 12.491426,239.00372 q 0.156752,0.0531 0.303858,0.22669 0.149517,0.17363 0.299034,0.47749 l 0.494371,0.98392 h -0.52331 l -0.460609,-0.92363 q -0.178456,-0.36174 -0.347266,-0.4799 -0.166398,-0.11817 -0.455786,-0.11817 h -0.530544 v 1.5217 h -0.487137 v -3.60047 h 1.099675 q 0.617361,0 0.921218,0.25804 0.303858,0.25803 0.303858,0.77893 0,0.34003 -0.159164,0.56431 -0.156752,0.22428 -0.458198,0.31109 z m -1.220252,-1.51205 v 1.27813 h 0.612538 q 0.352088,0 0.530544,-0.16158 0.180868,-0.16398 0.180868,-0.4799 0,-0.31591 -0.180868,-0.47508 -0.178456,-0.16157 -0.530544,-0.16157 z"
         style="font-size:4.93888855px;stroke-width:0.26458332"
         id="path3939" />
      <path
         d="m 16.673083,240.17815 v -0.96703 h -0.795817 v -0.40032 h 1.278131 v 1.54581 q -0.282154,0.20016 -0.622184,0.30386 -0.340031,0.10128 -0.725882,0.10128 -0.844048,0 -1.321539,-0.49196 -0.475078,-0.49437 -0.475078,-1.37459 0,-0.88263 0.475078,-1.37459 0.477491,-0.49437 1.321539,-0.49437 0.352089,0 0.668004,0.0868 0.318327,0.0868 0.586011,0.25563 v 0.51849 q -0.270096,-0.2291 -0.573953,-0.34486 -0.303858,-0.11575 -0.639065,-0.11575 -0.66077,0 -0.993566,0.36897 -0.330384,0.36897 -0.330384,1.09967 0,0.72829 0.330384,1.09726 0.332796,0.36897 0.993566,0.36897 0.258037,0 0.460609,-0.0434 0.202571,-0.0458 0.364146,-0.13988 z"
         style="font-size:4.93888855px;stroke-width:0.26458332"
         id="path3941" />
      <path
         d="m 20.273553,239.0616 v 1.63022 h -0.443729 v -1.61575 q 0,-0.38344 -0.149517,-0.57395 -0.149517,-0.19052 -0.448551,-0.19052 -0.359324,0 -0.566718,0.2291 -0.207395,0.2291 -0.207395,0.6246 v 1.52652 h -0.44614 v -2.70096 h 0.44614 v 0.41962 q 0.159163,-0.24357 0.373793,-0.36415 0.217041,-0.12058 0.499194,-0.12058 0.465432,0 0.704177,0.28939 0.238746,0.28698 0.238746,0.84646 z"
         style="font-size:4.93888855px;stroke-width:0.26458332"
         id="path3943" />
      <path
         d="m 23.10232,239.34375 q 0,-0.48955 -0.202572,-0.76688 -0.20016,-0.27974 -0.552248,-0.27974 -0.352089,0 -0.554661,0.27974 -0.20016,0.27733 -0.20016,0.76688 0,0.48955 0.20016,0.76929 0.202572,0.27733 0.554661,0.27733 0.352088,0 0.552248,-0.27733 0.202572,-0.27974 0.202572,-0.76929 z m -1.509641,-0.94292 q 0.139871,-0.24116 0.352089,-0.35691 0.214629,-0.11817 0.511252,-0.11817 0.49196,0 0.798229,0.39068 0.30868,0.39067 0.30868,1.02732 0,0.63666 -0.30868,1.02733 -0.306269,0.39067 -0.798229,0.39067 -0.296623,0 -0.511252,-0.11575 -0.212218,-0.11817 -0.352089,-0.35932 v 0.40514 h -0.44614 v -3.7524 h 0.44614 z"
         style="font-size:4.93888855px;stroke-width:0.26458332"
         id="path3945" />
    </g>
    <path
       style="fill:#b3b3b3;fill-opacity:1;stroke:url(#linearGradient2402-5-6-0);stroke-width:0.21309514;stroke-miterlimit:4;stroke-dasharray:none;stroke-dashoffset:0"
       d="M 2.9999077,243.8694 H 28.097697 v 6.85098 H 2.9999077 Z"
       id="rect2396-5-7-5" />
    <path
       style="fill:#b3b3b3;fill-opacity:1;stroke:url(#linearGradient2402-6-9-2);stroke-width:0.21309514;stroke-miterlimit:4;stroke-dasharray:none;stroke-dashoffset:0"
       d="M 2.9999075,250.72037 H 28.097697 v 6.85098 H 2.9999075 Z"
       id="rect2396-9-5-6" />
    <g
       aria-label="LteRrc"
       style="font-style:normal;font-weight:normal;font-size:10.58333302px;line-height:1.25;font-family:sans-serif;letter-spacing:0px;word-spacing:0px;fill:#000000;fill-opacity:1;stroke:none;stroke-width:0.26458332"
       id="text6276-7">
      <path
         d="M 9.1140545,245.72187 H 9.5316 v 2.73471 h 1.502751 v 0.3514 H 9.1140545 Z"
         style="font-size:4.23333311px;stroke-width:0.26458332"
         id="path4187" />
      <path
         d="m 11.830167,245.83556 v 0.65732 h 0.783415 v 0.29559 h -0.783415 v 1.25677 q 0,0.28319 0.07648,0.3638 0.07855,0.0806 0.316259,0.0806 h 0.390674 v 0.31832 h -0.390674 q -0.440283,0 -0.607714,-0.16329 -0.167432,-0.16537 -0.167432,-0.59945 v -1.25677 h -0.279053 v -0.29559 h 0.279053 v -0.65732 z"
         style="font-size:4.23333311px;stroke-width:0.26458332"
         id="path4189" />
      <path
         d="m 15.096118,247.55535 v 0.18603 h -1.74873 q 0.0248,0.39274 0.235644,0.59945 0.212907,0.20464 0.591178,0.20464 0.219109,0 0.423747,-0.0538 0.206706,-0.0537 0.409278,-0.16123 v 0.35967 q -0.204639,0.0868 -0.419613,0.13229 -0.214974,0.0455 -0.436149,0.0455 -0.553971,0 -0.878499,-0.32246 -0.322461,-0.32246 -0.322461,-0.8723 0,-0.56844 0.305924,-0.90124 0.307992,-0.33486 0.82889,-0.33486 0.467155,0 0.737939,0.30179 0.272852,0.29972 0.272852,0.81649 z m -0.380339,-0.11162 q -0.0041,-0.31213 -0.175699,-0.49817 -0.169499,-0.18603 -0.450619,-0.18603 -0.318327,0 -0.510563,0.17983 -0.190169,0.17984 -0.219108,0.50643 z"
         style="font-size:4.23333311px;stroke-width:0.26458332"
         id="path4191" />
      <path
         d="m 17.200382,247.36104 q 0.134359,0.0455 0.260449,0.19431 0.128158,0.14882 0.256315,0.40927 l 0.423747,0.84336 h -0.448552 l -0.394807,-0.79168 q -0.152963,-0.31006 -0.297657,-0.41134 -0.142627,-0.10129 -0.390674,-0.10129 h -0.454752 v 1.30431 h -0.417546 v -3.08611 h 0.942578 q 0.529167,0 0.789616,0.22117 0.260449,0.22118 0.260449,0.66766 0,0.29146 -0.136425,0.48369 -0.134359,0.19224 -0.392741,0.26665 z M 16.154451,246.065 v 1.09554 h 0.525032 q 0.301791,0 0.454753,-0.13849 0.155029,-0.14056 0.155029,-0.41135 0,-0.27078 -0.155029,-0.40721 -0.152962,-0.13849 -0.454753,-0.13849 z"
         style="font-size:4.23333311px;stroke-width:0.26458332"
         id="path4193" />
      <path
         d="m 20.005379,246.84841 q -0.06408,-0.0372 -0.14056,-0.0537 -0.07441,-0.0186 -0.165365,-0.0186 -0.322461,0 -0.496094,0.21084 -0.171565,0.20877 -0.171565,0.60151 v 1.21956 h -0.382406 v -2.3151 h 0.382406 v 0.35967 q 0.119889,-0.21084 0.312125,-0.31213 0.192237,-0.10335 0.467155,-0.10335 0.03927,0 0.08682,0.006 0.04754,0.004 0.10542,0.0145 z"
         style="font-size:4.23333311px;stroke-width:0.26458332"
         id="path4195" />
      <path
         d="m 21.983552,246.58176 v 0.35554 q -0.16123,-0.0889 -0.324528,-0.1323 -0.16123,-0.0455 -0.326595,-0.0455 -0.370003,0 -0.574642,0.23564 -0.204639,0.23358 -0.204639,0.65733 0,0.42375 0.204639,0.65939 0.204639,0.23358 0.574642,0.23358 0.165365,0 0.326595,-0.0434 0.163298,-0.0455 0.324528,-0.13436 v 0.3514 q -0.159163,0.0744 -0.330729,0.11162 -0.169499,0.0372 -0.361735,0.0372 -0.522966,0 -0.830957,-0.32866 -0.307992,-0.32867 -0.307992,-0.88677 0,-0.56638 0.310059,-0.8909 0.312126,-0.32453 0.853695,-0.32453 0.175699,0 0.343131,0.0372 0.167432,0.0351 0.324528,0.10748 z"
         style="font-size:4.23333311px;stroke-width:0.26458332"
         id="path4197" />
    </g>
    <path
       style="fill:#b3b3b3;stroke:url(#linearGradient2402-6-9-9-3);stroke-width:0.21309514;stroke-miterlimit:4;stroke-dasharray:none;stroke-dashoffset:0"
       d="M 2.9999075,257.57135 H 28.097697 v 6.85098 H 2.9999075 Z"
       id="rect2396-9-5-1-5" />
    <path
       style="opacity:0.98999999;fill:#e6e6e6;stroke:url(#linearGradient2402-6-9-94-0);stroke-width:0.2156622;stroke-miterlimit:4;stroke-dasharray:none;stroke-dashoffset:0"
       d="M 2.8675544,267.09631 H 27.962777 v 7.01776 H 2.8675544 Z"
       id="rect2396-9-5-8-2" />
    <g
       aria-label="NRGnbBwpM"
       style="font-style:normal;font-weight:normal;font-size:10.58333302px;line-height:1.25;font-family:sans-serif;letter-spacing:0px;word-spacing:0px;opacity:0.98999999;fill:#000000;fill-opacity:1;stroke:none;stroke-width:0.26458332"
       id="text2428-7-4-5">
      <path
         d="m 4.3133458,269.00667 h 0.468533 l 1.1403266,2.15146 v -2.15146 h 0.3376193 v 2.57176 h -0.468533 l -1.1403265,-2.15146 v 2.15146 H 4.3133458 Z"
         style="font-size:3.52777767px;stroke-width:0.26458332"
         id="path4166" />
      <path
         d="m 8.1718525,270.37265 q 0.1119656,0.0379 0.2170411,0.16192 0.1067979,0.12402 0.2135959,0.34106 l 0.3531222,0.7028 H 8.5818189 L 8.2528123,270.91869 Q 8.1253438,270.66031 8.0047654,270.57591 7.8859096,270.4915 7.6792039,270.4915 H 7.3002434 v 1.08693 H 6.9522888 v -2.57176 h 0.7854817 q 0.4409722,0 0.6580132,0.18431 0.2170411,0.18431 0.2170411,0.55638 0,0.24288 -0.1136882,0.40308 -0.1119656,0.1602 -0.3272841,0.22221 z m -0.8716091,-1.08004 v 0.91295 h 0.4375271 q 0.251492,0 0.3789605,-0.11541 0.1291911,-0.11713 0.1291911,-0.34279 0,-0.22565 -0.1291911,-0.33934 -0.1274685,-0.11541 -0.3789605,-0.11541 z"
         style="font-size:3.52777767px;stroke-width:0.26458332"
         id="path4168" />
      <path
         d="m 11.15875,271.21153 v -0.69074 h -0.568441 v -0.28595 h 0.912951 v 1.10416 q -0.201538,0.14297 -0.444418,0.21704 -0.242879,0.0723 -0.518486,0.0723 -0.6028922,0 -0.9439566,-0.3514 -0.3393419,-0.35312 -0.3393419,-0.98185 0,-0.63045 0.3393419,-0.98185 0.3410644,-0.35312 0.9439566,-0.35312 0.251491,0 0.477145,0.062 0.227377,0.062 0.418579,0.18259 v 0.37035 q -0.192925,-0.16364 -0.409966,-0.24633 -0.217041,-0.0827 -0.456475,-0.0827 -0.471978,0 -0.7096898,0.26355 -0.2359891,0.26355 -0.2359891,0.78548 0,0.52021 0.2359891,0.78376 0.2377118,0.26355 0.7096898,0.26355 0.184312,0 0.329006,-0.031 0.144694,-0.0327 0.260105,-0.0999 z"
         style="font-size:3.52777767px;stroke-width:0.26458332"
         id="path4170" />
      <path
         d="m 13.730514,270.41399 v 1.16444 h -0.316949 v -1.15411 q 0,-0.27388 -0.106798,-0.40996 -0.106798,-0.13608 -0.320394,-0.13608 -0.25666,0 -0.404799,0.16364 -0.148139,0.16364 -0.148139,0.44614 v 1.09037 h -0.318671 v -1.92925 h 0.318671 v 0.29972 q 0.113688,-0.17398 0.266995,-0.2601 0.155029,-0.0861 0.356567,-0.0861 0.332452,0 0.502984,0.2067 0.170533,0.20499 0.170533,0.60462 z"
         style="font-size:3.52777767px;stroke-width:0.26458332"
         id="path4172" />
      <path
         d="m 15.751062,270.61553 q 0,-0.34968 -0.144694,-0.54777 -0.142971,-0.19982 -0.394463,-0.19982 -0.251492,0 -0.396186,0.19982 -0.142972,0.19809 -0.142972,0.54777 0,0.34967 0.142972,0.54949 0.144694,0.19809 0.396186,0.19809 0.251492,0 0.394463,-0.19809 0.144694,-0.19982 0.144694,-0.54949 z m -1.078315,-0.67352 q 0.09991,-0.17225 0.251492,-0.25494 0.153307,-0.0844 0.36518,-0.0844 0.3514,0 0.570164,0.27905 0.220486,0.27905 0.220486,0.73381 0,0.45475 -0.220486,0.7338 -0.218764,0.27905 -0.570164,0.27905 -0.211873,0 -0.36518,-0.0827 -0.151584,-0.0844 -0.251492,-0.25666 v 0.28939 h -0.318671 v -2.68028 h 0.318671 z"
         style="font-size:3.52777767px;stroke-width:0.26458332"
         id="path4174" />
      <path
         d="m 16.967181,270.35025 v 0.94224 h 0.558105 q 0.280776,0 0.415134,-0.11541 0.136082,-0.11714 0.136082,-0.35657 0,-0.24116 -0.136082,-0.35485 -0.134358,-0.11541 -0.415134,-0.11541 z m 0,-1.05764 v 0.77515 h 0.515042 q 0.254937,0 0.37896,-0.0947 0.125746,-0.0965 0.125746,-0.29284 0,-0.19465 -0.125746,-0.29111 -0.124023,-0.0965 -0.37896,-0.0965 z m -0.347955,-0.28594 h 0.888835 q 0.397908,0 0.613227,0.16536 0.215318,0.16537 0.215318,0.47026 0,0.23599 -0.110243,0.37551 -0.110243,0.13953 -0.323839,0.17398 0.25666,0.0551 0.397909,0.23082 0.142971,0.17398 0.142971,0.43581 0,0.3445 -0.234266,0.53226 -0.234267,0.18776 -0.666626,0.18776 h -0.923286 z"
         style="font-size:3.52777767px;stroke-width:0.26458332"
         id="path4176" />
      <path
         d="m 18.83959,269.64918 h 0.316949 l 0.396186,1.5055 0.394464,-1.5055 h 0.373792 l 0.396186,1.5055 0.394464,-1.5055 h 0.316949 l -0.504707,1.92925 H 20.55008 l -0.415134,-1.5813 -0.416856,1.5813 h -0.373793 z"
         style="font-size:3.52777767px;stroke-width:0.26458332"
         id="path4178" />
      <path
         d="m 22.217507,271.28904 v 1.0232 h -0.318671 v -2.66306 h 0.318671 v 0.29283 q 0.09991,-0.17225 0.251492,-0.25494 0.153307,-0.0844 0.36518,-0.0844 0.3514,0 0.570163,0.27905 0.220487,0.27905 0.220487,0.73381 0,0.45475 -0.220487,0.7338 -0.218763,0.27905 -0.570163,0.27905 -0.211873,0 -0.36518,-0.0827 -0.151584,-0.0844 -0.251492,-0.25666 z m 1.078315,-0.67351 q 0,-0.34968 -0.144694,-0.54777 -0.142972,-0.19982 -0.394464,-0.19982 -0.251491,0 -0.396185,0.19982 -0.142972,0.19809 -0.142972,0.54777 0,0.34967 0.142972,0.54949 0.144694,0.19809 0.396185,0.19809 0.251492,0 0.394464,-0.19809 0.144694,-0.19982 0.144694,-0.54949 z"
         style="font-size:3.52777767px;stroke-width:0.26458332"
         id="path4180" />
      <path
         d="m 24.163985,269.00667 h 0.518487 l 0.656291,1.7501 0.659735,-1.7501 h 0.518487 v 2.57176 h -0.339342 v -2.25826 l -0.66318,1.76389 h -0.349678 l -0.66318,-1.76389 v 2.25826 h -0.33762 z"
         style="font-size:3.52777767px;stroke-width:0.26458332"
         id="path4182" />
    </g>
    <g
       aria-label="LteRlcAm/Um"
       style="font-style:normal;font-weight:normal;font-size:10.58333302px;line-height:1.25;font-family:sans-serif;letter-spacing:0px;word-spacing:0px;fill:#000000;fill-opacity:1;stroke:none;stroke-width:0.26458332"
       id="text2428-7-4-0-7">
      <path
         d="m 3.894045,259.60158 h 0.3479547 v 2.27893 h 1.2522921 v 0.29283 H 3.894045 Z"
         style="font-size:3.52777767px;stroke-width:0.26458332"
         id="path4143" />
      <path
         d="m 6.1574727,259.69632 v 0.54777 h 0.6528455 v 0.24632 H 6.1574727 v 1.04731 q 0,0.23599 0.063734,0.30317 0.065457,0.0672 0.2635498,0.0672 h 0.3255615 v 0.26527 H 6.4847567 q -0.3669026,0 -0.506429,-0.13608 -0.1395264,-0.13781 -0.1395264,-0.49954 v -1.04731 H 5.6062574 v -0.24632 h 0.2325439 v -0.54777 z"
         style="font-size:3.52777767px;stroke-width:0.26458332"
         id="path4145" />
      <path
         d="m 8.8790981,261.12948 v 0.15503 H 7.4218228 q 0.020671,0.32728 0.1963704,0.49953 0.1774224,0.17054 0.4926487,0.17054 0.18259,0 0.3531223,-0.0448 0.1722547,-0.0448 0.3410644,-0.13436 v 0.29972 q -0.1705322,0.0723 -0.3496772,0.11025 -0.1791449,0.0379 -0.3634576,0.0379 -0.4616427,0 -0.7320827,-0.26871 -0.2687175,-0.26872 -0.2687175,-0.72692 0,-0.4737 0.2549371,-0.75103 0.2566596,-0.27905 0.6907416,-0.27905 0.3892958,0 0.6149495,0.25149 0.2273763,0.24977 0.2273763,0.68041 z m -0.3169487,-0.093 q -0.00345,-0.26011 -0.1464166,-0.41514 -0.1412489,-0.15502 -0.3755154,-0.15502 -0.2652723,0 -0.4254693,0.14986 -0.1584743,0.14986 -0.18259,0.42202 z"
         style="font-size:3.52777767px;stroke-width:0.26458332"
         id="path4147" />
      <path
         d="m 10.632652,260.96756 q 0.111965,0.0379 0.217041,0.16192 0.106798,0.12402 0.213596,0.34106 l 0.353122,0.7028 h -0.373793 l -0.329006,-0.65974 q -0.127469,-0.25838 -0.248047,-0.34278 -0.118856,-0.0844 -0.325562,-0.0844 H 9.7610426 v 1.08693 H 9.413088 v -2.57176 h 0.785482 q 0.440972,0 0.658013,0.18431 0.217041,0.18431 0.217041,0.55638 0,0.24288 -0.113688,0.40308 -0.111966,0.16019 -0.327284,0.22221 z m -0.8716094,-1.08004 v 0.91295 H 10.19857 q 0.251492,0 0.37896,-0.11541 0.129191,-0.11713 0.129191,-0.34279 0,-0.22565 -0.129191,-0.33934 -0.127468,-0.11541 -0.37896,-0.11541 z"
         style="font-size:3.52777767px;stroke-width:0.26458332"
         id="path4149" />
      <path
         d="m 11.852215,259.49306 h 0.316949 v 2.68028 h -0.316949 z"
         style="font-size:3.52777767px;stroke-width:0.26458332"
         id="path4151" />
      <path
         d="m 14.218996,260.31816 v 0.29627 q -0.134359,-0.0741 -0.27044,-0.11024 -0.134359,-0.0379 -0.272163,-0.0379 -0.308336,0 -0.478868,0.19637 -0.170532,0.19464 -0.170532,0.54777 0,0.35312 0.170532,0.54949 0.170532,0.19465 0.478868,0.19465 0.137804,0 0.272163,-0.0362 0.136081,-0.0379 0.27044,-0.11196 v 0.29283 q -0.132637,0.062 -0.275608,0.093 -0.141249,0.031 -0.301446,0.031 -0.435805,0 -0.692464,-0.27388 -0.25666,-0.27389 -0.25666,-0.73897 0,-0.47198 0.258382,-0.74242 0.260105,-0.27044 0.711413,-0.27044 0.146416,0 0.285943,0.031 0.139526,0.0293 0.27044,0.0896 z"
         style="font-size:3.52777767px;stroke-width:0.26458332"
         id="path4153" />
      <path
         d="m 15.646988,259.94436 -0.471978,1.27986 h 0.945679 z m -0.196371,-0.34278 h 0.394464 l 0.98013,2.57176 h -0.361735 l -0.234267,-0.65974 h -1.159275 l -0.234266,0.65974 h -0.366903 z"
         style="font-size:3.52777767px;stroke-width:0.26458332"
         id="path4155" />
      <path
         d="m 18.687285,260.61443 q 0.118855,-0.21359 0.28422,-0.31522 0.165365,-0.10163 0.389296,-0.10163 0.301446,0 0.465088,0.21187 0.163642,0.21015 0.163642,0.59945 v 1.16444 h -0.318672 v -1.15411 q 0,-0.27733 -0.09819,-0.41169 -0.09819,-0.13435 -0.299723,-0.13435 -0.246325,0 -0.389296,0.16364 -0.142971,0.16364 -0.142971,0.44614 v 1.09037 h -0.318672 v -1.15411 q 0,-0.27905 -0.09818,-0.41169 -0.09819,-0.13435 -0.303168,-0.13435 -0.24288,0 -0.385851,0.16536 -0.142972,0.16364 -0.142972,0.44442 v 1.09037 h -0.318671 v -1.92925 h 0.318671 v 0.29972 q 0.108521,-0.17742 0.260105,-0.26183 0.151584,-0.0844 0.360013,-0.0844 0.21015,0 0.356567,0.1068 0.148139,0.10679 0.218764,0.31005 z"
         style="font-size:3.52777767px;stroke-width:0.26458332"
         id="path4157" />
      <path
         d="m 21.186702,259.60158 h 0.292833 l -0.895725,2.89904 h -0.292833 z"
         style="font-size:3.52777767px;stroke-width:0.26458332"
         id="path4159" />
      <path
         d="m 21.789594,259.60158 h 0.349677 v 1.56235 q 0,0.41341 0.149862,0.596 0.149861,0.18087 0.485758,0.18087 0.334174,0 0.484036,-0.18087 0.149862,-0.18259 0.149862,-0.596 v -1.56235 h 0.349677 v 1.60541 q 0,0.50298 -0.24977,0.75964 -0.248047,0.25666 -0.733805,0.25666 -0.487481,0 -0.73725,-0.25666 -0.248047,-0.25666 -0.248047,-0.75964 z"
         style="font-size:3.52777767px;stroke-width:0.26458332"
         id="path4161" />
      <path
         d="m 25.901314,260.61443 q 0.118856,-0.21359 0.28422,-0.31522 0.165365,-0.10163 0.389296,-0.10163 0.301446,0 0.465088,0.21187 0.163642,0.21015 0.163642,0.59945 v 1.16444 h -0.318671 v -1.15411 q 0,-0.27733 -0.09819,-0.41169 -0.09819,-0.13435 -0.299723,-0.13435 -0.246324,0 -0.389296,0.16364 -0.142971,0.16364 -0.142971,0.44614 v 1.09037 h -0.318671 v -1.15411 q 0,-0.27905 -0.09819,-0.41169 -0.09819,-0.13435 -0.303168,-0.13435 -0.242879,0 -0.385851,0.16536 -0.142971,0.16364 -0.142971,0.44442 v 1.09037 h -0.318672 v -1.92925 h 0.318672 v 0.29972 q 0.10852,-0.17742 0.260104,-0.26183 0.151585,-0.0844 0.360013,-0.0844 0.210151,0 0.356567,0.1068 0.148139,0.10679 0.218764,0.31005 z"
         style="font-size:3.52777767px;stroke-width:0.26458332"
         id="path4163" />
    </g>
    <g
       aria-label="LtePdcp"
       style="font-style:normal;font-weight:normal;font-size:10.58333302px;line-height:1.25;font-family:sans-serif;letter-spacing:0px;word-spacing:0px;fill:#000000;fill-opacity:1;stroke:none;stroke-width:0.26458332"
       id="text2428-7-4-6-4">
      <path
         d="M 7.4304354,252.22763 H 7.847981 v 2.73472 h 1.5027506 v 0.3514 H 7.4304354 Z"
         style="font-size:4.23333311px;stroke-width:0.26458332"
         id="path4128" />
      <path
         d="m 10.146548,252.34132 v 0.65733 h 0.783415 v 0.29559 h -0.783415 v 1.25677 q 0,0.28318 0.07648,0.3638 0.07855,0.0806 0.316259,0.0806 h 0.390674 v 0.31833 h -0.390674 q -0.440283,0 -0.6077145,-0.1633 -0.1674316,-0.16536 -0.1674316,-0.59944 v -1.25677 H 9.4850902 v -0.29559 h 0.2790527 v -0.65733 z"
         style="font-size:4.23333311px;stroke-width:0.26458332"
         id="path4130" />
      <path
         d="m 13.412499,254.06111 v 0.18604 h -1.74873 q 0.0248,0.39274 0.235644,0.59945 0.212907,0.20463 0.591178,0.20463 0.219109,0 0.423747,-0.0537 0.206706,-0.0537 0.409277,-0.16123 v 0.35967 q -0.204638,0.0868 -0.419612,0.13229 -0.214974,0.0455 -0.436149,0.0455 -0.553972,0 -0.878499,-0.32247 -0.322461,-0.32246 -0.322461,-0.87229 0,-0.56844 0.305924,-0.90124 0.307992,-0.33486 0.82889,-0.33486 0.467155,0 0.737939,0.30179 0.272852,0.29972 0.272852,0.81648 z m -0.380339,-0.11162 q -0.0041,-0.31212 -0.175699,-0.49816 -0.169499,-0.18603 -0.450619,-0.18603 -0.318327,0 -0.510563,0.17983 -0.190169,0.17984 -0.219108,0.50643 z"
         style="font-size:4.23333311px;stroke-width:0.26458332"
         id="path4132" />
      <path
         d="m 14.470832,252.57077 v 1.15962 h 0.525032 q 0.291455,0 0.450619,-0.1509 0.159163,-0.15089 0.159163,-0.42995 0,-0.27698 -0.159163,-0.42788 -0.159164,-0.15089 -0.450619,-0.15089 z m -0.417546,-0.34314 h 0.942578 q 0.518832,0 0.783415,0.23565 0.26665,0.23358 0.26665,0.68626 0,0.45682 -0.26665,0.6904 -0.264583,0.23358 -0.783415,0.23358 h -0.525032 v 1.24023 h -0.417546 z"
         style="font-size:4.23333311px;stroke-width:0.26458332"
         id="path4134" />
      <path
         d="m 18.115054,253.35005 v -1.25264 h 0.380338 v 3.21634 h -0.380338 v -0.34726 q -0.11989,0.2067 -0.303858,0.30799 -0.181901,0.0992 -0.438216,0.0992 -0.419613,0 -0.684196,-0.33487 -0.262516,-0.33486 -0.262516,-0.88056 0,-0.54571 0.262516,-0.88057 0.264583,-0.33486 0.684196,-0.33486 0.256315,0 0.438216,0.10128 0.183968,0.0992 0.303858,0.30593 z m -1.296045,0.80822 q 0,0.41961 0.171565,0.65939 0.173633,0.23771 0.475424,0.23771 0.30179,0 0.475423,-0.23771 0.173633,-0.23978 0.173633,-0.65939 0,-0.41962 -0.173633,-0.65733 -0.173633,-0.23978 -0.475423,-0.23978 -0.301791,0 -0.475424,0.23978 -0.171565,0.23771 -0.171565,0.65733 z"
         style="font-size:4.23333311px;stroke-width:0.26458332"
         id="path4136" />
      <path
         d="m 20.944855,253.08753 v 0.35553 q -0.16123,-0.0889 -0.324528,-0.13229 -0.16123,-0.0455 -0.326595,-0.0455 -0.370003,0 -0.574642,0.23564 -0.204638,0.23358 -0.204638,0.65733 0,0.42374 0.204638,0.65939 0.204639,0.23357 0.574642,0.23357 0.165365,0 0.326595,-0.0434 0.163298,-0.0455 0.324528,-0.13436 v 0.3514 q -0.159163,0.0744 -0.330729,0.11162 -0.169499,0.0372 -0.361735,0.0372 -0.522965,0 -0.830957,-0.32867 -0.307991,-0.32866 -0.307991,-0.88676 0,-0.56638 0.310058,-0.89091 0.312126,-0.32452 0.853695,-0.32452 0.1757,0 0.343131,0.0372 0.167432,0.0351 0.324528,0.10749 z"
         style="font-size:4.23333311px;stroke-width:0.26458332"
         id="path4138" />
      <path
         d="m 21.978384,254.96649 v 1.22783 h -0.382406 v -3.19567 h 0.382406 v 0.3514 q 0.119889,-0.20671 0.30179,-0.30593 0.183968,-0.10128 0.438216,-0.10128 0.42168,0 0.684196,0.33486 0.264583,0.33486 0.264583,0.88057 0,0.5457 -0.264583,0.88056 -0.262516,0.33487 -0.684196,0.33487 -0.254248,0 -0.438216,-0.0992 -0.181901,-0.10129 -0.30179,-0.30799 z m 1.293977,-0.80822 q 0,-0.41962 -0.173632,-0.65733 -0.171566,-0.23978 -0.473356,-0.23978 -0.301791,0 -0.475424,0.23978 -0.171565,0.23771 -0.171565,0.65733 0,0.41961 0.171565,0.65939 0.173633,0.23771 0.475424,0.23771 0.30179,0 0.473356,-0.23771 0.173632,-0.23978 0.173632,-0.65939 z"
         style="font-size:4.23333311px;stroke-width:0.26458332"
         id="path4140" />
    </g>
    <path
       style="fill:none;stroke:url(#linearGradient2388-4);stroke-width:0.29247099;stroke-miterlimit:4;stroke-dasharray:0.292471, 0.292471;stroke-dashoffset:0"
       d="m 66.229477,234.95007 h 28.276287 v 60.8533 H 66.229477 Z"
       id="rect1577-0" />
    <g
       aria-label="NRUe"
       transform="scale(0.97547059,1.0251462)"
       style="font-style:normal;font-weight:normal;font-size:10.84656525px;line-height:1.25;font-family:sans-serif;letter-spacing:0px;word-spacing:0px;fill:#000000;fill-opacity:1;stroke:none;stroke-width:0.27116412"
       id="text2392-6">
      <path
         d="m 77.40413,231.09097 h 0.672261 l 1.636164,3.08696 v -3.08696 h 0.484424 v 3.69002 h -0.672261 l -1.636165,-3.08696 v 3.08696 H 77.40413 Z"
         style="font-size:5.06172991px;stroke-width:0.27116412"
         id="path4118" />
      <path
         d="m 82.940397,233.05091 q 0.16065,0.0544 0.311415,0.23232 0.153236,0.17795 0.306472,0.48937 l 0.506667,1.00839 h -0.536326 l -0.472065,-0.9466 q -0.182895,-0.37073 -0.355903,-0.49184 -0.170537,-0.12111 -0.467123,-0.12111 h -0.54374 v 1.55955 h -0.499253 v -3.69002 h 1.127026 q 0.632716,0 0.944131,0.26446 0.311415,0.26445 0.311415,0.79831 0,0.34848 -0.163122,0.57834 -0.160651,0.22985 -0.469594,0.31883 z m -1.250603,-1.54966 v 1.30992 h 0.627773 q 0.360846,0 0.54374,-0.1656 0.185366,-0.16806 0.185366,-0.49183 0,-0.32378 -0.185366,-0.4869 -0.182894,-0.16559 -0.54374,-0.16559 z"
         style="font-size:5.06172991px;stroke-width:0.27116412"
         id="path4120" />
      <path
         d="m 84.653179,231.09097 h 0.501725 v 2.24169 q 0,0.59318 0.215024,0.85516 0.215025,0.25951 0.696977,0.25951 0.47948,0 0.694505,-0.25951 0.215024,-0.26198 0.215024,-0.85516 v -2.24169 h 0.501725 v 2.30348 q 0,0.72169 -0.358375,1.08995 -0.355903,0.36827 -1.052879,0.36827 -0.699448,0 -1.057823,-0.36827 -0.355903,-0.36826 -0.355903,-1.08995 z"
         style="font-size:5.06172991px;stroke-width:0.27116412"
         id="path4122" />
      <path
         d="m 90.765317,233.28323 v 0.22244 h -2.090929 q 0.02966,0.4696 0.281756,0.71675 0.25457,0.24468 0.706863,0.24468 0.261984,0 0.506667,-0.0643 0.247155,-0.0643 0.489367,-0.19278 v 0.43005 q -0.244684,0.10381 -0.501725,0.15818 -0.257041,0.0544 -0.521496,0.0544 -0.662375,0 -1.050408,-0.38557 -0.385561,-0.38556 -0.385561,-1.04299 0,-0.67967 0.365789,-1.07759 0.36826,-0.40039 0.99109,-0.40039 0.55857,0 0.882343,0.36084 0.326244,0.35838 0.326244,0.97626 z m -0.454765,-0.13346 q -0.0049,-0.3732 -0.210081,-0.59564 -0.202667,-0.22244 -0.538798,-0.22244 -0.380618,0 -0.610472,0.21502 -0.227382,0.21503 -0.261984,0.60553 z"
         style="font-size:5.06172991px;stroke-width:0.27116412"
         id="path4124" />
    </g>
    <path
       style="fill:#e6e6e6;stroke:url(#linearGradient2388-4-6);stroke-width:0.26210108;stroke-miterlimit:4;stroke-dasharray:0.26210107, 0.26210107;stroke-dashoffset:0"
       d="m 35.95285,237.42751 h 24.941454 v 58.26955 H 35.95285 Z"
       id="rect1577-0-0" />
    <g
       aria-label="mmWave
channels"
       style="font-style:normal;font-weight:normal;font-size:10.58333302px;line-height:1.25;font-family:sans-serif;text-align:center;letter-spacing:0px;word-spacing:0px;text-anchor:middle;fill:#000000;fill-opacity:1;stroke:none;stroke-width:0.26458332"
       id="text2392-6-6">
      <path
         d="m 38.931099,257.26205 q 0.166398,-0.29903 0.397909,-0.44132 0.23151,-0.14228 0.545014,-0.14228 0.422024,0 0.651123,0.29662 0.229099,0.29422 0.229099,0.83923 v 1.63022 h -0.44614 v -1.61575 q 0,-0.38826 -0.137459,-0.57637 -0.13746,-0.1881 -0.419613,-0.1881 -0.344854,0 -0.545014,0.2291 -0.20016,0.2291 -0.20016,0.6246 v 1.52652 h -0.44614 v -1.61575 q 0,-0.39067 -0.137459,-0.57637 -0.13746,-0.1881 -0.424436,-0.1881 -0.340031,0 -0.540191,0.23151 -0.20016,0.2291 -0.20016,0.62219 v 1.52652 h -0.44614 v -2.70096 h 0.44614 v 0.41962 q 0.151929,-0.24839 0.364147,-0.36656 0.212217,-0.11817 0.504017,-0.11817 0.294211,0 0.499194,0.14952 0.207395,0.14952 0.306269,0.43408 z"
         style="font-size:4.93888855px;text-align:center;text-anchor:middle;stroke-width:0.26458332"
         id="path4088" />
      <path
         d="m 43.744586,257.26205 q 0.166398,-0.29903 0.397909,-0.44132 0.23151,-0.14228 0.545014,-0.14228 0.422024,0 0.651123,0.29662 0.229099,0.29422 0.229099,0.83923 v 1.63022 h -0.44614 v -1.61575 q 0,-0.38826 -0.137459,-0.57637 -0.13746,-0.1881 -0.419613,-0.1881 -0.344854,0 -0.545014,0.2291 -0.20016,0.2291 -0.20016,0.6246 v 1.52652 h -0.44614 v -1.61575 q 0,-0.39067 -0.137459,-0.57637 -0.13746,-0.1881 -0.424436,-0.1881 -0.340031,0 -0.540191,0.23151 -0.20016,0.2291 -0.20016,0.62219 v 1.52652 h -0.44614 v -2.70096 h 0.44614 v 0.41962 q 0.151929,-0.24839 0.364147,-0.36656 0.212218,-0.11817 0.504017,-0.11817 0.294211,0 0.499194,0.14952 0.207395,0.14952 0.306269,0.43408 z"
         style="font-size:4.93888855px;text-align:center;text-anchor:middle;stroke-width:0.26458332"
         id="path4090" />
      <path
         d="m 46.153741,255.84405 h 0.49196 l 0.757232,3.0434 0.75482,-3.0434 h 0.547426 l 0.757232,3.0434 0.75482,-3.0434 h 0.494371 l -0.904337,3.60047 h -0.612538 l -0.759643,-3.12539 -0.766879,3.12539 h -0.612538 z"
         style="font-size:4.93888855px;text-align:center;text-anchor:middle;stroke-width:0.26458332"
         id="path4092" />
      <path
         d="m 52.245359,258.08681 q -0.53778,0 -0.745174,0.12299 -0.207395,0.12299 -0.207395,0.41961 0,0.23633 0.15434,0.3762 0.156752,0.13746 0.424436,0.13746 0.36897,0 0.590834,-0.26045 0.224275,-0.26286 0.224275,-0.69694 v -0.0989 z m 0.885045,-0.18328 v 1.54099 h -0.443729 v -0.40997 q -0.151928,0.24598 -0.378616,0.36415 -0.226687,0.11575 -0.55466,0.11575 -0.414789,0 -0.660769,-0.23151 -0.243568,-0.23392 -0.243568,-0.62459 0,-0.45579 0.303857,-0.6873 0.306269,-0.23151 0.911572,-0.23151 h 0.622184 v -0.0434 q 0,-0.30627 -0.202571,-0.47266 -0.20016,-0.16881 -0.564307,-0.16881 -0.23151,0 -0.450963,0.0555 -0.219452,0.0555 -0.422024,0.1664 v -0.40997 q 0.243568,-0.0941 0.472667,-0.13987 0.229099,-0.0482 0.44614,-0.0482 0.586011,0 0.875399,0.30386 0.289388,0.30386 0.289388,0.92122 z"
         style="font-size:4.93888855px;text-align:center;text-anchor:middle;stroke-width:0.26458332"
         id="path4094" />
      <path
         d="m 53.728472,256.74356 h 0.470256 l 0.844048,2.26688 0.844049,-2.26688 h 0.470255 l -1.012858,2.70096 H 54.74133 Z"
         style="font-size:4.93888855px;text-align:center;text-anchor:middle;stroke-width:0.26458332"
         id="path4096" />
      <path
         d="m 59.279899,257.98311 v 0.21704 h -2.040185 q 0.02894,0.4582 0.274918,0.69935 0.248392,0.23875 0.689708,0.23875 0.255626,0 0.494372,-0.0627 0.241156,-0.0627 0.47749,-0.1881 v 0.41961 q -0.238745,0.10129 -0.489548,0.15434 -0.250803,0.053 -0.508841,0.053 -0.6463,0 -1.024916,-0.3762 -0.376204,-0.3762 -0.376204,-1.01768 0,-0.66318 0.356912,-1.05144 0.359323,-0.39068 0.967038,-0.39068 0.545014,0 0.860929,0.35209 0.318327,0.34968 0.318327,0.95257 z m -0.443728,-0.13022 q -0.0048,-0.36415 -0.204983,-0.58119 -0.197749,-0.21704 -0.525722,-0.21704 -0.371381,0 -0.595657,0.2098 -0.221864,0.20981 -0.255626,0.59084 z"
         style="font-size:4.93888855px;text-align:center;text-anchor:middle;stroke-width:0.26458332"
         id="path4098" />
      <path
         d="m 39.292834,270.07643 v 0.41479 q -0.188102,-0.1037 -0.378616,-0.15434 -0.188102,-0.0531 -0.381027,-0.0531 -0.431671,0 -0.670416,0.27492 -0.238745,0.27251 -0.238745,0.76688 0,0.49437 0.238745,0.76929 0.238745,0.27251 0.670416,0.27251 0.192925,0 0.381027,-0.0506 0.190514,-0.0531 0.378616,-0.15675 v 0.40997 q -0.18569,0.0868 -0.38585,0.13022 -0.197749,0.0434 -0.422025,0.0434 -0.610126,0 -0.969449,-0.38344 -0.359324,-0.38344 -0.359324,-1.03456 0,-0.66077 0.361735,-1.03939 0.364147,-0.37861 0.995977,-0.37861 0.204983,0 0.40032,0.0434 0.195337,0.041 0.378616,0.1254 z"
         style="font-size:4.93888855px;text-align:center;text-anchor:middle;stroke-width:0.26458332"
         id="path4100" />
      <path
         d="m 42.314527,271.04347 v 1.63022 h -0.443728 v -1.61575 q 0,-0.38344 -0.149517,-0.57396 -0.149517,-0.19051 -0.448551,-0.19051 -0.359324,0 -0.566719,0.2291 -0.207394,0.2291 -0.207394,0.62459 v 1.52653 h -0.44614 v -3.7524 h 0.44614 v 1.47105 q 0.159163,-0.24356 0.373793,-0.36414 0.217041,-0.12058 0.499194,-0.12058 0.465432,0 0.704177,0.28939 0.238745,0.28697 0.238745,0.84646 z"
         style="font-size:4.93888855px;text-align:center;text-anchor:middle;stroke-width:0.26458332"
         id="path4102" />
      <path
         d="m 44.431883,271.31597 q -0.53778,0 -0.745174,0.12299 -0.207395,0.12299 -0.207395,0.41962 0,0.23633 0.15434,0.3762 0.156752,0.13746 0.424436,0.13746 0.36897,0 0.590834,-0.26045 0.224275,-0.26286 0.224275,-0.69694 v -0.0989 z m 0.885045,-0.18328 v 1.541 h -0.443729 v -0.40997 q -0.151928,0.24598 -0.378616,0.36415 -0.226687,0.11575 -0.55466,0.11575 -0.414789,0 -0.660769,-0.23151 -0.243568,-0.23392 -0.243568,-0.6246 0,-0.45578 0.303857,-0.68729 0.306269,-0.23151 0.911572,-0.23151 h 0.622184 v -0.0434 q 0,-0.30627 -0.202571,-0.47267 -0.20016,-0.16881 -0.564307,-0.16881 -0.23151,0 -0.450963,0.0555 -0.219452,0.0555 -0.422024,0.1664 v -0.40997 q 0.243568,-0.094 0.472667,-0.13987 0.229099,-0.0482 0.44614,-0.0482 0.586011,0 0.875399,0.30386 0.289388,0.30385 0.289388,0.92121 z"
         style="font-size:4.93888855px;text-align:center;text-anchor:middle;stroke-width:0.26458332"
         id="path4104" />
      <path
         d="m 48.478492,271.04347 v 1.63022 h -0.443729 v -1.61575 q 0,-0.38344 -0.149517,-0.57396 -0.149517,-0.19051 -0.448551,-0.19051 -0.359324,0 -0.566718,0.2291 -0.207395,0.2291 -0.207395,0.62459 v 1.52653 h -0.44614 v -2.70096 h 0.44614 v 0.41961 q 0.159163,-0.24356 0.373793,-0.36414 0.217041,-0.12058 0.499194,-0.12058 0.465432,0 0.704178,0.28939 0.238745,0.28697 0.238745,0.84646 z"
         style="font-size:4.93888855px;text-align:center;text-anchor:middle;stroke-width:0.26458332"
         id="path4106" />
      <path
         d="m 51.613529,271.04347 v 1.63022 h -0.443728 v -1.61575 q 0,-0.38344 -0.149517,-0.57396 -0.149517,-0.19051 -0.448552,-0.19051 -0.359323,0 -0.566718,0.2291 -0.207395,0.2291 -0.207395,0.62459 v 1.52653 H 49.35148 v -2.70096 h 0.446139 v 0.41961 q 0.159164,-0.24356 0.373793,-0.36414 0.217041,-0.12058 0.499195,-0.12058 0.465432,0 0.704177,0.28939 0.238745,0.28697 0.238745,0.84646 z"
         style="font-size:4.93888855px;text-align:center;text-anchor:middle;stroke-width:0.26458332"
         id="path4108" />
      <path
         d="m 54.813678,271.21228 v 0.21704 h -2.040186 q 0.02894,0.45819 0.274919,0.69935 0.248391,0.23875 0.689708,0.23875 0.255626,0 0.494371,-0.0627 0.241157,-0.0627 0.477491,-0.18811 v 0.41962 q -0.238746,0.10128 -0.489549,0.15434 -0.250802,0.0531 -0.50884,0.0531 -0.6463,0 -1.024916,-0.3762 -0.376204,-0.37621 -0.376204,-1.01768 0,-0.66319 0.356912,-1.05145 0.359323,-0.39067 0.967038,-0.39067 0.545014,0 0.860929,0.35209 0.318327,0.34967 0.318327,0.95257 z m -0.443728,-0.13023 q -0.0048,-0.36415 -0.204984,-0.58119 -0.197748,-0.21704 -0.525721,-0.21704 -0.371381,0 -0.595657,0.20981 -0.221864,0.20981 -0.255626,0.59083 z"
         style="font-size:4.93888855px;text-align:center;text-anchor:middle;stroke-width:0.26458332"
         id="path4110" />
      <path
         d="m 55.541971,268.92129 h 0.443728 v 3.7524 h -0.443728 z"
         style="font-size:4.93888855px;text-align:center;text-anchor:middle;stroke-width:0.26458332"
         id="path4112" />
      <path
         d="m 58.6336,270.05231 v 0.41961 q -0.188102,-0.0965 -0.390674,-0.14469 -0.202572,-0.0482 -0.419613,-0.0482 -0.330384,0 -0.496782,0.10129 -0.163987,0.10128 -0.163987,0.30385 0,0.15434 0.118167,0.24357 0.118167,0.0868 0.475079,0.1664 l 0.151928,0.0338 q 0.472667,0.10129 0.670416,0.28698 0.20016,0.18328 0.20016,0.51366 0,0.37621 -0.299034,0.59566 -0.296623,0.21945 -0.817522,0.21945 -0.217041,0 -0.453374,-0.0434 -0.233922,-0.041 -0.494371,-0.1254 v -0.4582 q 0.24598,0.12782 0.484725,0.19293 0.238745,0.0627 0.472667,0.0627 0.313503,0 0.482313,-0.10611 0.16881,-0.10852 0.16881,-0.30386 0,-0.18086 -0.12299,-0.27733 -0.120578,-0.0965 -0.532956,-0.18569 l -0.154341,-0.0362 q -0.412378,-0.0868 -0.595657,-0.26527 -0.183279,-0.18087 -0.183279,-0.49437 0,-0.38103 0.270096,-0.58843 0.270095,-0.20739 0.766878,-0.20739 0.24598,0 0.463021,0.0362 0.217041,0.0362 0.40032,0.10852 z"
         style="font-size:4.93888855px;text-align:center;text-anchor:middle;stroke-width:0.26458332"
         id="path4114" />
    </g>
    <path
       style="fill:none;stroke:#000000;stroke-width:0.3067598px;stroke-linecap:butt;stroke-linejoin:miter;stroke-opacity:1"
       d="m 27.317151,292.33483 h 8.741055"
       id="path6714"
       inkscape:connector-curvature="0" />
    <path
       style="fill:#e6e6e6;stroke:url(#linearGradient2402-6-9-94-0-5);stroke-width:0.2156622;stroke-miterlimit:4;stroke-dasharray:none;stroke-dashoffset:0"
       d="m 1.922614,280.87042 h 25.095222 v 7.01776 H 1.922614 Z"
       id="rect2396-9-5-8-2-4" />
    <path
       style="fill:#e6e6e6;stroke:url(#linearGradient2402-6-9-94-0-9);stroke-width:0.2156622;stroke-miterlimit:4;stroke-dasharray:none;stroke-dashoffset:0"
       d="m 1.922613,287.88818 h 25.095222 v 7.01776 H 1.922613 Z"
       id="rect2396-9-5-8-2-9" />
    <path
       style="fill:none;stroke:#000000;stroke-width:0.26458332px;stroke-linecap:butt;stroke-linejoin:miter;stroke-opacity:1"
       d="m 1.9226139,280.8704 2.5494257,-2.54943"
       id="path9285"
       inkscape:connector-curvature="0" />
    <path
       style="fill:none;stroke:#000000;stroke-width:0.26589957px;stroke-linecap:butt;stroke-linejoin:miter;stroke-opacity:1"
       d="M 4.4720396,278.32097 H 29.588448 v 14.23779"
       id="path9289"
       inkscape:connector-curvature="0" />
    <path
       style="fill:none;stroke:#000000;stroke-width:0.26458332px;stroke-linecap:butt;stroke-linejoin:miter;stroke-opacity:1"
       d="m 27.017838,280.87041 2.522281,-2.52228"
       id="path9291"
       inkscape:connector-curvature="0" />
    <path
       style="fill:none;stroke:#000000;stroke-width:0.265;stroke-linecap:butt;stroke-linejoin:miter;stroke-opacity:1;stroke-miterlimit:4;stroke-dasharray:none"
       d="m 27.017835,294.90594 2.571107,-2.57111"
       id="path9293"
       inkscape:connector-curvature="0" />
    <path
       style="fill:none;stroke:#000000;stroke-width:0.26458332px;stroke-linecap:butt;stroke-linejoin:miter;stroke-opacity:1"
       d="m 27.017835,287.88817 2.558508,-2.5585"
       id="path9295"
       inkscape:connector-curvature="0" />
    <path
       style="fill:none;stroke:#000000;stroke-width:0.26458332px;stroke-linecap:butt;stroke-linejoin:miter;stroke-opacity:1"
       d="M 2.6930803,279.84931 H 27.970237"
       id="path9297"
       inkscape:connector-curvature="0" />
    <path
       style="fill:none;stroke:#000000;stroke-width:0.26458332px;stroke-linecap:butt;stroke-linejoin:miter;stroke-opacity:1"
       d="M 3.5907737,279.04611 H 28.678942"
       id="path9299"
       inkscape:connector-curvature="0" />
    <path
       style="fill:none;stroke:#000000;stroke-width:0.26458332px;stroke-linecap:butt;stroke-linejoin:miter;stroke-opacity:1"
       d="m 27.970237,279.84931 v 13.98512"
       id="path9301"
       inkscape:connector-curvature="0" />
    <path
       style="fill:none;stroke:#000000;stroke-width:0.26458332px;stroke-linecap:butt;stroke-linejoin:miter;stroke-opacity:1"
       d="m 28.678942,279.04611 v 14.03236"
       id="path9303"
       inkscape:connector-curvature="0" />
    <g
       aria-label="NREnbMac"
       style="font-style:normal;font-weight:normal;font-size:10.58333302px;line-height:1.25;font-family:sans-serif;letter-spacing:0px;word-spacing:0px;fill:#000000;fill-opacity:1;stroke:none;stroke-width:0.26458332"
       id="text2428-7-4-5-1">
      <path
         d="m 5.2769882,283.12269 h 0.468533 l 1.1403265,2.15147 v -2.15147 h 0.3376194 v 2.57177 H 6.7549341 L 5.6146075,283.543 v 2.15146 H 5.2769882 Z"
         style="font-size:3.52777767px;stroke-width:0.26458332"
         id="path4069" />
      <path
         d="m 9.1354949,284.48867 q 0.1119656,0.0379 0.217041,0.16192 0.106798,0.12403 0.2135959,0.34107 l 0.3531223,0.7028 H 9.5454613 l -0.3290067,-0.65974 q -0.1274685,-0.25838 -0.2480468,-0.34278 -0.1188558,-0.0844 -0.3255615,-0.0844 H 8.2638858 v 1.08693 H 7.9159311 v -2.57177 h 0.7854818 q 0.4409722,0 0.6580132,0.18432 0.217041,0.18431 0.217041,0.55638 0,0.24288 -0.1136881,0.40308 -0.1119656,0.16019 -0.3272841,0.2222 z m -0.8716091,-1.08003 v 0.91295 h 0.4375271 q 0.2514919,0 0.3789605,-0.11541 0.1291911,-0.11714 0.1291911,-0.34279 0,-0.22565 -0.1291911,-0.33934 -0.1274686,-0.11541 -0.3789605,-0.11541 z"
         style="font-size:3.52777767px;stroke-width:0.26458332"
         id="path4071" />
      <path
         d="m 10.368839,283.12269 h 1.626085 v 0.29284 h -1.27813 v 0.76136 h 1.224731 v 0.29284 h -1.224731 v 0.93189 h 1.309136 v 0.29284 h -1.657091 z"
         style="font-size:3.52777767px;stroke-width:0.26458332"
         id="path4073" />
      <path
         d="m 14.191172,284.53002 v 1.16444 h -0.316948 v -1.15411 q 0,-0.27388 -0.106798,-0.40997 -0.106798,-0.13608 -0.320394,-0.13608 -0.25666,0 -0.404799,0.16365 -0.148139,0.16364 -0.148139,0.44614 v 1.09037 h -0.318671 v -1.92926 h 0.318671 v 0.29973 q 0.113688,-0.17398 0.266995,-0.26011 0.155029,-0.0861 0.356567,-0.0861 0.332452,0 0.502984,0.2067 0.170532,0.20498 0.170532,0.60462 z"
         style="font-size:3.52777767px;stroke-width:0.26458332"
         id="path4075" />
      <path
         d="m 16.21172,284.73155 q 0,-0.34967 -0.144694,-0.54777 -0.142971,-0.19981 -0.394463,-0.19981 -0.251492,0 -0.396186,0.19981 -0.142971,0.1981 -0.142971,0.54777 0,0.34968 0.142971,0.5495 0.144694,0.19809 0.396186,0.19809 0.251492,0 0.394463,-0.19809 0.144694,-0.19982 0.144694,-0.5495 z m -1.078314,-0.67351 q 0.09991,-0.17226 0.251492,-0.25494 0.153306,-0.0844 0.36518,-0.0844 0.351399,0 0.570163,0.27905 0.220486,0.27905 0.220486,0.7338 0,0.45476 -0.220486,0.73381 -0.218764,0.27905 -0.570163,0.27905 -0.211874,0 -0.36518,-0.0827 -0.151585,-0.0844 -0.251492,-0.25666 v 0.28939 h -0.318672 v -2.68029 h 0.318672 z"
         style="font-size:3.52777767px;stroke-width:0.26458332"
         id="path4077" />
      <path
         d="m 17.079885,283.12269 h 0.518487 l 0.65629,1.75011 0.659736,-1.75011 h 0.518487 v 2.57177 h -0.339342 v -2.25826 l -0.663181,1.76389 h -0.349677 l -0.663181,-1.76389 v 2.25826 h -0.337619 z"
         style="font-size:3.52777767px;stroke-width:0.26458332"
         id="path4079" />
      <path
         d="m 20.988346,284.72466 q -0.384129,0 -0.532268,0.0879 -0.148139,0.0879 -0.148139,0.29973 0,0.16881 0.110243,0.26871 0.111966,0.0982 0.303169,0.0982 0.263549,0 0.422024,-0.18604 0.160197,-0.18775 0.160197,-0.49781 v -0.0706 z m 0.632175,-0.13091 v 1.10071 h -0.316949 v -0.29284 q -0.108521,0.1757 -0.27044,0.26011 -0.16192,0.0827 -0.396186,0.0827 -0.296278,0 -0.471978,-0.16536 -0.173978,-0.16709 -0.173978,-0.44614 0,-0.32556 0.217041,-0.49093 0.218764,-0.16536 0.651124,-0.16536 h 0.444417 v -0.031 q 0,-0.21876 -0.144694,-0.33762 -0.142972,-0.12058 -0.403076,-0.12058 -0.165365,0 -0.322117,0.0396 -0.156752,0.0396 -0.301446,0.11886 v -0.29284 q 0.173978,-0.0672 0.33762,-0.0999 0.163642,-0.0344 0.318671,-0.0344 0.418579,0 0.625285,0.21704 0.206706,0.21704 0.206706,0.65801 z"
         style="font-size:3.52777767px;stroke-width:0.26458332"
         id="path4081" />
      <path
         d="m 23.663462,283.83927 v 0.29628 q -0.134359,-0.0741 -0.27044,-0.11024 -0.134359,-0.0379 -0.272162,-0.0379 -0.308336,0 -0.478869,0.19637 -0.170532,0.19465 -0.170532,0.54777 0,0.35313 0.170532,0.5495 0.170533,0.19464 0.478869,0.19464 0.137803,0 0.272162,-0.0362 0.136081,-0.0379 0.27044,-0.11196 v 0.29283 q -0.132636,0.062 -0.275608,0.093 -0.141248,0.031 -0.301445,0.031 -0.435805,0 -0.692465,-0.27388 -0.256659,-0.27389 -0.256659,-0.73898 0,-0.47197 0.258382,-0.74241 0.260105,-0.27044 0.711412,-0.27044 0.146417,0 0.285943,0.031 0.139526,0.0293 0.27044,0.0896 z"
         style="font-size:3.52777767px;stroke-width:0.26458332"
         id="path4083" />
    </g>
    <g
       aria-label="NREnbPhy"
       style="font-style:normal;font-weight:normal;font-size:10.58333302px;line-height:1.25;font-family:sans-serif;letter-spacing:0px;word-spacing:0px;fill:#000000;fill-opacity:1;stroke:none;stroke-width:0.26458332"
       id="text2428-7-4-5-7">
      <path
         d="m 5.5663749,289.79854 h 0.468533 L 7.1752345,291.95 v -2.15146 h 0.3376193 v 2.57176 h -0.468533 l -1.1403265,-2.15146 v 2.15146 H 5.5663749 Z"
         style="font-size:3.52777767px;stroke-width:0.26458332"
         id="path4052" />
      <path
         d="m 9.4248816,291.16452 q 0.1119656,0.0379 0.2170411,0.16192 0.1067979,0.12402 0.2135959,0.34106 l 0.3531224,0.7028 H 9.834848 l -0.3290066,-0.65974 q -0.1274685,-0.25838 -0.2480469,-0.34278 -0.1188558,-0.0844 -0.3255615,-0.0844 H 8.5532725 v 1.08693 H 8.2053179 v -2.57176 h 0.7854817 q 0.4409722,0 0.6580132,0.18431 0.2170411,0.18431 0.2170411,0.55638 0,0.24288 -0.1136882,0.40308 -0.1119656,0.1602 -0.3272841,0.22221 z m -0.8716091,-1.08004 v 0.91295 h 0.4375271 q 0.251492,0 0.3789605,-0.11541 0.1291911,-0.11713 0.1291911,-0.34279 0,-0.22565 -0.1291911,-0.33934 -0.1274685,-0.11541 -0.3789605,-0.11541 z"
         style="font-size:3.52777767px;stroke-width:0.26458332"
         id="path4054" />
      <path
         d="m 10.658226,289.79854 h 1.626085 v 0.29283 H 11.00618 v 0.76137 h 1.224732 v 0.29283 H 11.00618 v 0.9319 h 1.309137 v 0.29283 h -1.657091 z"
         style="font-size:3.52777767px;stroke-width:0.26458332"
         id="path4056" />
      <path
         d="m 14.480559,291.20586 v 1.16444 H 14.16361 v -1.15411 q 0,-0.27388 -0.106798,-0.40996 -0.106798,-0.13608 -0.320394,-0.13608 -0.256659,0 -0.404798,0.16364 -0.148139,0.16364 -0.148139,0.44614 v 1.09037 h -0.318672 v -1.92925 h 0.318672 v 0.29972 q 0.113688,-0.17398 0.266995,-0.2601 0.155029,-0.0861 0.356567,-0.0861 0.332452,0 0.502984,0.2067 0.170532,0.20499 0.170532,0.60462 z"
         style="font-size:3.52777767px;stroke-width:0.26458332"
         id="path4058" />
      <path
         d="m 16.501107,291.4074 q 0,-0.34968 -0.144694,-0.54777 -0.142971,-0.19982 -0.394463,-0.19982 -0.251492,0 -0.396186,0.19982 -0.142972,0.19809 -0.142972,0.54777 0,0.34967 0.142972,0.54949 0.144694,0.19809 0.396186,0.19809 0.251492,0 0.394463,-0.19809 0.144694,-0.19982 0.144694,-0.54949 z m -1.078315,-0.67352 q 0.09991,-0.17225 0.251492,-0.25494 0.153307,-0.0844 0.36518,-0.0844 0.3514,0 0.570164,0.27905 0.220486,0.27905 0.220486,0.73381 0,0.45475 -0.220486,0.7338 -0.218764,0.27905 -0.570164,0.27905 -0.211873,0 -0.36518,-0.0827 -0.151584,-0.0844 -0.251492,-0.25666 v 0.28939 h -0.318671 v -2.68028 h 0.318671 z"
         style="font-size:3.52777767px;stroke-width:0.26458332"
         id="path4060" />
      <path
         d="m 17.717226,290.08448 v 0.96635 h 0.437527 q 0.242879,0 0.375516,-0.12575 0.132636,-0.12574 0.132636,-0.35829 0,-0.23082 -0.132636,-0.35656 -0.132637,-0.12575 -0.375516,-0.12575 z m -0.347955,-0.28594 h 0.785482 q 0.43236,0 0.652846,0.19637 0.222208,0.19464 0.222208,0.57188 0,0.38069 -0.222208,0.57533 -0.220486,0.19465 -0.652846,0.19465 h -0.437527 v 1.03353 h -0.347955 z"
         style="font-size:3.52777767px;stroke-width:0.26458332"
         id="path4062" />
      <path
         d="m 21.088251,291.20586 v 1.16444 h -0.316948 v -1.15411 q 0,-0.27388 -0.106798,-0.40996 -0.106798,-0.13608 -0.320394,-0.13608 -0.25666,0 -0.404799,0.16364 -0.148139,0.16364 -0.148139,0.44614 v 1.09037 h -0.318671 v -2.68028 h 0.318671 v 1.05075 q 0.113688,-0.17398 0.266995,-0.2601 0.155029,-0.0861 0.356567,-0.0861 0.332452,0 0.502984,0.2067 0.170532,0.20499 0.170532,0.60462 z"
         style="font-size:3.52777767px;stroke-width:0.26458332"
         id="path4064" />
      <path
         d="m 22.52658,292.54945 q -0.134359,0.3445 -0.261827,0.44958 -0.127469,0.10508 -0.341065,0.10508 h -0.253214 v -0.26528 h 0.186035 q 0.130913,0 0.20326,-0.062 0.07235,-0.062 0.160197,-0.29283 l 0.05684,-0.1447 -0.780314,-1.89824 h 0.335897 l 0.602892,1.50895 0.602891,-1.50895 h 0.335897 z"
         style="font-size:3.52777767px;stroke-width:0.26458332"
         id="path4066" />
    </g>
    <path
       style="fill:#b3b3b3;fill-opacity:1;stroke:url(#linearGradient2402-5-6-0-7);stroke-width:0.21309516;stroke-miterlimit:4;stroke-dasharray:none;stroke-dashoffset:0"
       d="m 67.679947,242.88322 h 25.09779 v 6.85098 h -25.09779 z"
       id="rect2396-5-7-5-3" />
    <path
       style="fill:#b3b3b3;fill-opacity:1;stroke:url(#linearGradient2402-6-9-2-6);stroke-width:0.21309516;stroke-miterlimit:4;stroke-dasharray:none;stroke-dashoffset:0"
       d="m 67.679947,249.73419 h 25.09779 v 6.85098 h -25.09779 z"
       id="rect2396-9-5-6-6" />
    <g
       aria-label="LteRrc"
       style="font-style:normal;font-weight:normal;font-size:10.58333302px;line-height:1.25;font-family:sans-serif;letter-spacing:0px;word-spacing:0px;fill:#000000;fill-opacity:1;stroke:none;stroke-width:0.26458332"
       id="text6276-7-5">
      <path
         d="m 73.794087,244.73569 h 0.417546 v 2.73472 h 1.50275 v 0.3514 h -1.920296 z"
         style="font-size:4.23333311px;stroke-width:0.26458332"
         id="path4037" />
      <path
         d="m 76.5102,244.84938 v 0.65732 h 0.783415 v 0.29559 H 76.5102 v 1.25677 q 0,0.28319 0.07648,0.36381 0.07855,0.0806 0.31626,0.0806 h 0.390674 v 0.31833 h -0.390674 q -0.440283,0 -0.607715,-0.1633 -0.167431,-0.16536 -0.167431,-0.59945 v -1.25677 h -0.279053 v -0.29559 h 0.279053 v -0.65732 z"
         style="font-size:4.23333311px;stroke-width:0.26458332"
         id="path4039" />
      <path
         d="m 79.776151,246.56917 v 0.18604 H 78.02742 q 0.02481,0.39274 0.235645,0.59944 0.212907,0.20464 0.591178,0.20464 0.219108,0 0.423747,-0.0537 0.206706,-0.0538 0.409277,-0.16123 v 0.35967 q -0.204638,0.0868 -0.419612,0.13229 -0.214974,0.0455 -0.436149,0.0455 -0.553972,0 -0.8785,-0.32246 -0.322461,-0.32246 -0.322461,-0.8723 0,-0.56844 0.305925,-0.90123 0.307991,-0.33487 0.82889,-0.33487 0.467155,0 0.737939,0.30179 0.272852,0.29973 0.272852,0.81649 z m -0.380339,-0.11162 q -0.0041,-0.31213 -0.1757,-0.49816 -0.169498,-0.18604 -0.450618,-0.18604 -0.318327,0 -0.510563,0.17984 -0.19017,0.17983 -0.219108,0.50643 z"
         style="font-size:4.23333311px;stroke-width:0.26458332"
         id="path4041" />
      <path
         d="m 81.880415,246.37487 q 0.134358,0.0455 0.260449,0.1943 0.128157,0.14883 0.256315,0.40928 l 0.423747,0.84336 h -0.448552 l -0.394808,-0.79169 q -0.152962,-0.31005 -0.297656,-0.41134 -0.142627,-0.10129 -0.390674,-0.10129 h -0.454752 v 1.30432 h -0.417546 v -3.08612 h 0.942578 q 0.529167,0 0.789616,0.22118 0.260449,0.22117 0.260449,0.66766 0,0.29145 -0.136426,0.48369 -0.134358,0.19223 -0.39274,0.26665 z m -1.045931,-1.29605 v 1.09554 h 0.525032 q 0.301791,0 0.454753,-0.13849 0.155029,-0.14056 0.155029,-0.41134 0,-0.27079 -0.155029,-0.40721 -0.152962,-0.1385 -0.454753,-0.1385 z"
         style="font-size:4.23333311px;stroke-width:0.26458332"
         id="path4043" />
      <path
         d="m 84.685411,245.86224 q -0.06408,-0.0372 -0.14056,-0.0538 -0.07441,-0.0186 -0.165364,-0.0186 -0.322461,0 -0.496094,0.21084 -0.171566,0.20877 -0.171566,0.60151 v 1.21957 h -0.382405 v -2.31511 h 0.382405 v 0.35967 q 0.11989,-0.21084 0.312126,-0.31212 0.192236,-0.10336 0.467155,-0.10336 0.03927,0 0.08682,0.006 0.04754,0.004 0.10542,0.0145 z"
         style="font-size:4.23333311px;stroke-width:0.26458332"
         id="path4045" />
      <path
         d="m 86.663585,245.59559 v 0.35553 q -0.161231,-0.0889 -0.324528,-0.13229 -0.161231,-0.0455 -0.326595,-0.0455 -0.370003,0 -0.574642,0.23565 -0.204639,0.23358 -0.204639,0.65732 0,0.42375 0.204639,0.65939 0.204639,0.23358 0.574642,0.23358 0.165364,0 0.326595,-0.0434 0.163297,-0.0455 0.324528,-0.13436 v 0.3514 q -0.159164,0.0744 -0.330729,0.11163 -0.169499,0.0372 -0.361735,0.0372 -0.522966,0 -0.830957,-0.32866 -0.307992,-0.32866 -0.307992,-0.88677 0,-0.56637 0.310059,-0.8909 0.312125,-0.32453 0.853694,-0.32453 0.1757,0 0.343132,0.0372 0.167431,0.0351 0.324528,0.10749 z"
         style="font-size:4.23333311px;stroke-width:0.26458332"
         id="path4047" />
    </g>
    <path
       style="fill:#b3b3b3;stroke:url(#linearGradient2402-6-9-9-3-7);stroke-width:0.21309516;stroke-miterlimit:4;stroke-dasharray:none;stroke-dashoffset:0"
       d="m 67.679947,256.58517 h 25.09779 v 6.85098 h -25.09779 z"
       id="rect2396-9-5-1-5-3" />
    <path
       style="fill:#e6e6e6;stroke:url(#linearGradient2402-6-9-94-0-7);stroke-width:0.2156622;stroke-miterlimit:4;stroke-dasharray:none;stroke-dashoffset:0"
       d="m 67.547592,266.11014 h 25.095223 v 7.01775 H 67.547592 Z"
       id="rect2396-9-5-8-2-94" />
    <g
       aria-label="NRUeBwpM"
       style="font-style:normal;font-weight:normal;font-size:10.58333302px;line-height:1.25;font-family:sans-serif;letter-spacing:0px;word-spacing:0px;fill:#000000;fill-opacity:1;stroke:none;stroke-width:0.26458332"
       id="text2428-7-4-5-8">
      <path
         d="m 70.223284,267.96623 h 0.468533 l 1.140327,2.15146 v -2.15146 h 0.337619 v 2.57176 H 71.70123 l -1.140326,-2.15146 v 2.15146 h -0.33762 z"
         style="font-size:3.52777767px;stroke-width:0.26458332"
         id="path4018" />
      <path
         d="m 74.081791,269.33221 q 0.111966,0.0379 0.217041,0.16192 0.106798,0.12402 0.213596,0.34106 l 0.353122,0.7028 h -0.373793 l -0.329006,-0.65973 q -0.127469,-0.25838 -0.248047,-0.34279 -0.118856,-0.0844 -0.325562,-0.0844 h -0.37896 v 1.08692 h -0.347955 v -2.57176 h 0.785482 q 0.440972,0 0.658013,0.18431 0.217041,0.18432 0.217041,0.55639 0,0.24288 -0.113688,0.40307 -0.111965,0.1602 -0.327284,0.22221 z m -0.871609,-1.08004 v 0.91295 h 0.437527 q 0.251492,0 0.378961,-0.11541 0.129191,-0.11713 0.129191,-0.34278 0,-0.22566 -0.129191,-0.33935 -0.127469,-0.11541 -0.378961,-0.11541 z"
         style="font-size:3.52777767px;stroke-width:0.26458332"
         id="path4020" />
      <path
         d="m 75.275517,267.96623 h 0.349677 v 1.56235 q 0,0.41341 0.149861,0.596 0.149862,0.18087 0.485759,0.18087 0.334174,0 0.484036,-0.18087 0.149861,-0.18259 0.149861,-0.596 v -1.56235 h 0.349678 v 1.60542 q 0,0.50298 -0.24977,0.75964 -0.248047,0.25666 -0.733805,0.25666 -0.487481,0 -0.737251,-0.25666 -0.248046,-0.25666 -0.248046,-0.75964 z"
         style="font-size:3.52777767px;stroke-width:0.26458332"
         id="path4022" />
      <path
         d="m 79.535377,269.49413 v 0.15503 h -1.457275 q 0.02067,0.32728 0.19637,0.49954 0.177423,0.17053 0.492649,0.17053 0.18259,0 0.353122,-0.0448 0.172255,-0.0448 0.341065,-0.13435 v 0.29972 q -0.170533,0.0723 -0.349678,0.11024 -0.179144,0.0379 -0.363457,0.0379 -0.461643,0 -0.732083,-0.26872 -0.268717,-0.26872 -0.268717,-0.72691 0,-0.4737 0.254937,-0.75104 0.256659,-0.27905 0.690741,-0.27905 0.389296,0 0.61495,0.25149 0.227376,0.24977 0.227376,0.68041 z m -0.316949,-0.093 q -0.0034,-0.2601 -0.146416,-0.41513 -0.141249,-0.15503 -0.375515,-0.15503 -0.265273,0 -0.42547,0.14986 -0.158474,0.14986 -0.18259,0.42203 z"
         style="font-size:3.52777767px;stroke-width:0.26458332"
         id="path4024" />
      <path
         d="m 80.417322,269.30982 v 0.94223 h 0.558105 q 0.280775,0 0.415134,-0.11541 0.136081,-0.11713 0.136081,-0.35657 0,-0.24115 -0.136081,-0.35484 -0.134359,-0.11541 -0.415134,-0.11541 z m 0,-1.05765 v 0.77515 h 0.515041 q 0.254938,0 0.378961,-0.0947 0.125746,-0.0965 0.125746,-0.29283 0,-0.19465 -0.125746,-0.29111 -0.124023,-0.0965 -0.378961,-0.0965 z m -0.347955,-0.28594 h 0.888835 q 0.397908,0 0.613227,0.16537 0.215318,0.16536 0.215318,0.47025 0,0.23599 -0.110243,0.37552 -0.110243,0.13952 -0.323839,0.17397 0.25666,0.0551 0.397909,0.23082 0.142971,0.17398 0.142971,0.43581 0,0.34451 -0.234266,0.53227 -0.234267,0.18775 -0.666626,0.18775 h -0.923286 z"
         style="font-size:3.52777767px;stroke-width:0.26458332"
         id="path4026" />
      <path
         d="m 82.289731,268.60874 h 0.316949 l 0.396186,1.50551 0.394463,-1.50551 h 0.373793 l 0.396186,1.50551 0.394464,-1.50551 h 0.316948 l -0.504706,1.92925 h -0.373793 l -0.415134,-1.58129 -0.416857,1.58129 h -0.373792 z"
         style="font-size:3.52777767px;stroke-width:0.26458332"
         id="path4028" />
      <path
         d="m 85.667647,270.24861 v 1.02319 h -0.318672 v -2.66306 h 0.318672 v 0.29283 q 0.09991,-0.17225 0.251492,-0.25493 0.153307,-0.0844 0.36518,-0.0844 0.3514,0 0.570163,0.27905 0.220486,0.27906 0.220486,0.73381 0,0.45475 -0.220486,0.73381 -0.218763,0.27905 -0.570163,0.27905 -0.211873,0 -0.36518,-0.0827 -0.151584,-0.0844 -0.251492,-0.25666 z m 1.078315,-0.67352 q 0,-0.34968 -0.144694,-0.54777 -0.142972,-0.19982 -0.394464,-0.19982 -0.251492,0 -0.396186,0.19982 -0.142971,0.19809 -0.142971,0.54777 0,0.34968 0.142971,0.54949 0.144694,0.1981 0.396186,0.1981 0.251492,0 0.394464,-0.1981 0.144694,-0.19981 0.144694,-0.54949 z"
         style="font-size:3.52777767px;stroke-width:0.26458332"
         id="path4030" />
      <path
         d="m 87.614125,267.96623 h 0.518487 l 0.65629,1.75011 0.659736,-1.75011 h 0.518487 v 2.57176 h -0.339342 v -2.25826 l -0.663181,1.76389 h -0.349677 l -0.663181,-1.76389 v 2.25826 h -0.337619 z"
         style="font-size:3.52777767px;stroke-width:0.26458332"
         id="path4032" />
    </g>
    <g
       aria-label="LteRlcAm/Um"
       style="font-style:normal;font-weight:normal;font-size:10.58333302px;line-height:1.25;font-family:sans-serif;letter-spacing:0px;word-spacing:0px;fill:#000000;fill-opacity:1;stroke:none;stroke-width:0.26458332"
       id="text2428-7-4-0-7-9">
      <path
         d="m 68.574084,258.6154 h 0.347955 v 2.27893 h 1.252292 v 0.29283 h -1.600247 z"
         style="font-size:3.52777767px;stroke-width:0.26458332"
         id="path3995" />
      <path
         d="m 70.837512,258.71014 v 0.54777 h 0.652845 v 0.24633 h -0.652845 v 1.0473 q 0,0.23599 0.06373,0.30317 0.06546,0.0672 0.26355,0.0672 h 0.325561 v 0.26527 h -0.325561 q -0.366903,0 -0.506429,-0.13608 -0.139527,-0.1378 -0.139527,-0.49954 v -1.0473 h -0.232544 v -0.24633 h 0.232544 v -0.54777 z"
         style="font-size:3.52777767px;stroke-width:0.26458332"
         id="path3997" />
      <path
         d="m 73.559137,260.1433 v 0.15503 h -1.457275 q 0.02067,0.32728 0.19637,0.49954 0.177423,0.17053 0.492649,0.17053 0.18259,0 0.353122,-0.0448 0.172255,-0.0448 0.341065,-0.13435 v 0.29972 q -0.170533,0.0724 -0.349678,0.11024 -0.179145,0.0379 -0.363457,0.0379 -0.461643,0 -0.732083,-0.26872 -0.268717,-0.26872 -0.268717,-0.72691 0,-0.4737 0.254937,-0.75104 0.256659,-0.27905 0.690741,-0.27905 0.389296,0 0.61495,0.25149 0.227376,0.24977 0.227376,0.68041 z m -0.316949,-0.093 q -0.0034,-0.2601 -0.146416,-0.41513 -0.141249,-0.15503 -0.375516,-0.15503 -0.265272,0 -0.425469,0.14986 -0.158474,0.14986 -0.18259,0.42203 z"
         style="font-size:3.52777767px;stroke-width:0.26458332"
         id="path3999" />
      <path
         d="m 75.312691,259.98138 q 0.111965,0.0379 0.217041,0.16192 0.106798,0.12402 0.213596,0.34106 l 0.353122,0.7028 h -0.373793 l -0.329007,-0.65973 q -0.127468,-0.25838 -0.248046,-0.34279 -0.118856,-0.0844 -0.325562,-0.0844 h -0.37896 v 1.08692 h -0.347955 v -2.57176 h 0.785482 q 0.440972,0 0.658013,0.18431 0.217041,0.18432 0.217041,0.55639 0,0.24288 -0.113688,0.40307 -0.111966,0.1602 -0.327284,0.22221 z m -0.871609,-1.08004 v 0.91295 h 0.437527 q 0.251492,0 0.37896,-0.11541 0.129191,-0.11713 0.129191,-0.34278 0,-0.22566 -0.129191,-0.33935 -0.127468,-0.11541 -0.37896,-0.11541 z"
         style="font-size:3.52777767px;stroke-width:0.26458332"
         id="path4001" />
      <path
         d="m 76.532254,258.50688 h 0.316949 v 2.68028 h -0.316949 z"
         style="font-size:3.52777767px;stroke-width:0.26458332"
         id="path4003" />
      <path
         d="m 78.899034,259.33198 v 0.29628 q -0.134358,-0.0741 -0.27044,-0.11024 -0.134358,-0.0379 -0.272162,-0.0379 -0.308336,0 -0.478868,0.19637 -0.170533,0.19465 -0.170533,0.54777 0,0.35312 0.170533,0.54949 0.170532,0.19465 0.478868,0.19465 0.137804,0 0.272162,-0.0362 0.136082,-0.0379 0.27044,-0.11197 v 0.29283 q -0.132636,0.062 -0.275607,0.093 -0.141249,0.031 -0.301446,0.031 -0.435805,0 -0.692464,-0.27389 -0.25666,-0.27388 -0.25666,-0.73897 0,-0.47198 0.258382,-0.74242 0.260105,-0.27044 0.711413,-0.27044 0.146416,0 0.285942,0.031 0.139527,0.0293 0.27044,0.0896 z"
         style="font-size:3.52777767px;stroke-width:0.26458332"
         id="path4005" />
      <path
         d="m 80.327027,258.95819 -0.471978,1.27985 h 0.945678 z m -0.196371,-0.34279 h 0.394464 l 0.980129,2.57176 h -0.361735 l -0.234266,-0.65973 h -1.159275 l -0.234266,0.65973 h -0.366903 z"
         style="font-size:3.52777767px;stroke-width:0.26458332"
         id="path4007" />
      <path
         d="m 83.367324,259.62826 q 0.118855,-0.2136 0.28422,-0.31523 0.165364,-0.10163 0.389296,-0.10163 0.301445,0 0.465088,0.21188 0.163642,0.21015 0.163642,0.59944 v 1.16444 h -0.318672 v -1.1541 q 0,-0.27733 -0.09819,-0.41169 -0.09819,-0.13436 -0.299723,-0.13436 -0.246325,0 -0.389296,0.16364 -0.142972,0.16364 -0.142972,0.44614 v 1.09037 h -0.318671 v -1.1541 q 0,-0.27906 -0.09819,-0.41169 -0.09819,-0.13436 -0.303168,-0.13436 -0.24288,0 -0.385851,0.16536 -0.142972,0.16365 -0.142972,0.44442 v 1.09037 h -0.318671 v -1.92925 h 0.318671 v 0.29972 q 0.108521,-0.17742 0.260105,-0.26182 0.151584,-0.0844 0.360013,-0.0844 0.21015,0 0.356567,0.1068 0.148139,0.1068 0.218764,0.31006 z"
         style="font-size:3.52777767px;stroke-width:0.26458332"
         id="path4009" />
      <path
         d="m 85.866741,258.6154 h 0.292833 l -0.895725,2.89905 h -0.292833 z"
         style="font-size:3.52777767px;stroke-width:0.26458332"
         id="path4011" />
      <path
         d="m 86.469633,258.6154 h 0.349677 v 1.56235 q 0,0.41341 0.149861,0.596 0.149862,0.18087 0.485759,0.18087 0.334174,0 0.484036,-0.18087 0.149861,-0.18259 0.149861,-0.596 v -1.56235 h 0.349678 v 1.60542 q 0,0.50298 -0.24977,0.75964 -0.248047,0.25666 -0.733805,0.25666 -0.487481,0 -0.73725,-0.25666 -0.248047,-0.25666 -0.248047,-0.75964 z"
         style="font-size:3.52777767px;stroke-width:0.26458332"
         id="path4013" />
      <path
         d="m 90.581353,259.62826 q 0.118856,-0.2136 0.28422,-0.31523 0.165365,-0.10163 0.389296,-0.10163 0.301446,0 0.465088,0.21188 0.163642,0.21015 0.163642,0.59944 v 1.16444 h -0.318671 v -1.1541 q 0,-0.27733 -0.09819,-0.41169 -0.09819,-0.13436 -0.299723,-0.13436 -0.246324,0 -0.389296,0.16364 -0.142971,0.16364 -0.142971,0.44614 v 1.09037 H 90.31608 v -1.1541 q 0,-0.27906 -0.09819,-0.41169 -0.09819,-0.13436 -0.303168,-0.13436 -0.242879,0 -0.385851,0.16536 -0.142971,0.16365 -0.142971,0.44442 v 1.09037 h -0.318672 v -1.92925 h 0.318672 v 0.29972 q 0.10852,-0.17742 0.260104,-0.26182 0.151585,-0.0844 0.360013,-0.0844 0.210151,0 0.356567,0.1068 0.148139,0.1068 0.218764,0.31006 z"
         style="font-size:3.52777767px;stroke-width:0.26458332"
         id="path4015" />
    </g>
    <g
       aria-label="LtePdcp"
       style="font-style:normal;font-weight:normal;font-size:10.58333302px;line-height:1.25;font-family:sans-serif;letter-spacing:0px;word-spacing:0px;fill:#000000;fill-opacity:1;stroke:none;stroke-width:0.26458332"
       id="text2428-7-4-6-4-9">
      <path
         d="m 72.110471,251.24146 h 0.417545 v 2.73472 h 1.502751 v 0.3514 h -1.920296 z"
         style="font-size:4.23333311px;stroke-width:0.26458332"
         id="path3980" />
      <path
         d="m 74.826584,251.35515 v 0.65732 h 0.783414 v 0.29559 h -0.783414 v 1.25677 q 0,0.28319 0.07648,0.3638 0.07855,0.0806 0.316259,0.0806 h 0.390674 v 0.31833 h -0.390674 q -0.440283,0 -0.607714,-0.1633 -0.167432,-0.16537 -0.167432,-0.59945 v -1.25677 h -0.279053 v -0.29559 h 0.279053 v -0.65732 z"
         style="font-size:4.23333311px;stroke-width:0.26458332"
         id="path3982" />
      <path
         d="m 78.092534,253.07494 v 0.18603 h -1.74873 q 0.0248,0.39275 0.235644,0.59945 0.212907,0.20464 0.591179,0.20464 0.219108,0 0.423746,-0.0537 0.206706,-0.0538 0.409278,-0.16123 v 0.35966 q -0.204639,0.0868 -0.419613,0.1323 -0.214974,0.0455 -0.436149,0.0455 -0.553971,0 -0.878499,-0.32246 -0.322461,-0.32246 -0.322461,-0.8723 0,-0.56844 0.305924,-0.90124 0.307992,-0.33486 0.82889,-0.33486 0.467155,0 0.73794,0.30179 0.272851,0.29972 0.272851,0.81649 z m -0.380338,-0.11162 q -0.0041,-0.31213 -0.1757,-0.49816 -0.169499,-0.18604 -0.450619,-0.18604 -0.318327,0 -0.510563,0.17984 -0.190169,0.17983 -0.219108,0.50642 z"
         style="font-size:4.23333311px;stroke-width:0.26458332"
         id="path3984" />
      <path
         d="m 79.150867,251.58459 v 1.15962 H 79.6759 q 0.291455,0 0.450618,-0.1509 0.159163,-0.15089 0.159163,-0.42994 0,-0.27699 -0.159163,-0.42788 -0.159163,-0.1509 -0.450618,-0.1509 z m -0.417546,-0.34313 H 79.6759 q 0.518831,0 0.783414,0.23564 0.266651,0.23358 0.266651,0.68627 0,0.45682 -0.266651,0.69039 -0.264583,0.23358 -0.783414,0.23358 h -0.525033 v 1.24024 h -0.417546 z"
         style="font-size:4.23333311px;stroke-width:0.26458332"
         id="path3986" />
      <path
         d="m 82.795089,252.36387 v -1.25264 h 0.380338 v 3.21635 h -0.380338 v -0.34727 q -0.11989,0.20671 -0.303858,0.30799 -0.181901,0.0992 -0.438216,0.0992 -0.419612,0 -0.684196,-0.33486 -0.262516,-0.33487 -0.262516,-0.88057 0,-0.5457 0.262516,-0.88057 0.264584,-0.33486 0.684196,-0.33486 0.256315,0 0.438216,0.10129 0.183968,0.0992 0.303858,0.30592 z m -1.296045,0.80822 q 0,0.41961 0.171566,0.65939 0.173632,0.23771 0.475423,0.23771 0.30179,0 0.475423,-0.23771 0.173633,-0.23978 0.173633,-0.65939 0,-0.41961 -0.173633,-0.65732 -0.173633,-0.23978 -0.475423,-0.23978 -0.301791,0 -0.475423,0.23978 -0.171566,0.23771 -0.171566,0.65732 z"
         style="font-size:4.23333311px;stroke-width:0.26458332"
         id="path3988" />
      <path
         d="m 85.62489,252.10136 v 0.35553 q -0.16123,-0.0889 -0.324528,-0.13229 -0.16123,-0.0455 -0.326595,-0.0455 -0.370003,0 -0.574641,0.23565 -0.204639,0.23357 -0.204639,0.65732 0,0.42375 0.204639,0.65939 0.204638,0.23358 0.574641,0.23358 0.165365,0 0.326595,-0.0434 0.163298,-0.0455 0.324528,-0.13436 v 0.3514 q -0.159163,0.0744 -0.330729,0.11162 -0.169498,0.0372 -0.361735,0.0372 -0.522965,0 -0.830957,-0.32866 -0.307991,-0.32866 -0.307991,-0.88677 0,-0.56637 0.310058,-0.8909 0.312126,-0.32453 0.853695,-0.32453 0.1757,0 0.343131,0.0372 0.167432,0.0351 0.324528,0.10749 z"
         style="font-size:4.23333311px;stroke-width:0.26458332"
         id="path3990" />
      <path
         d="m 86.658419,253.98031 v 1.22783 h -0.382406 v -3.19567 h 0.382406 v 0.3514 q 0.119889,-0.2067 0.30179,-0.30592 0.183968,-0.10129 0.438216,-0.10129 0.42168,0 0.684196,0.33486 0.264583,0.33487 0.264583,0.88057 0,0.5457 -0.264583,0.88057 -0.262516,0.33486 -0.684196,0.33486 -0.254248,0 -0.438216,-0.0992 -0.181901,-0.10128 -0.30179,-0.30799 z m 1.293978,-0.80822 q 0,-0.41961 -0.173633,-0.65732 -0.171566,-0.23978 -0.473356,-0.23978 -0.301791,0 -0.475424,0.23978 -0.171565,0.23771 -0.171565,0.65732 0,0.41961 0.171565,0.65939 0.173633,0.23771 0.475424,0.23771 0.30179,0 0.473356,-0.23771 0.173633,-0.23978 0.173633,-0.65939 z"
         style="font-size:4.23333311px;stroke-width:0.26458332"
         id="path3992" />
    </g>
    <path
       style="opacity:1;fill:#e6e6e6;stroke:url(#linearGradient2402-6-9-94-0-5-9);stroke-width:0.2156622;stroke-miterlimit:4;stroke-dasharray:none;stroke-dashoffset:0"
       d="m 69.40049,280.43613 h 25.095222 v 7.01775 H 69.40049 Z"
       id="rect2396-9-5-8-2-4-8" />
    <path
       style="opacity:1;fill:#e6e6e6;stroke:url(#linearGradient2402-6-9-94-0-9-1);stroke-width:0.2156622;stroke-miterlimit:4;stroke-dasharray:none;stroke-dashoffset:0"
       d="m 69.400482,287.45389 h 25.095223 v 7.01775 H 69.400482 Z"
       id="rect2396-9-5-8-2-9-8" />
    <g
       aria-label="NRUeMac"
       style="font-style:normal;font-weight:normal;font-size:10.58333302px;line-height:1.25;font-family:sans-serif;letter-spacing:0px;word-spacing:0px;opacity:1;fill:#000000;fill-opacity:1;stroke:none;stroke-width:0.26458332"
       id="text2428-7-4-5-1-1">
      <path
         d="m 73.733271,282.63414 h 0.468533 l 1.140327,2.15146 v -2.15146 h 0.337619 v 2.57176 h -0.468533 l -1.140326,-2.15146 v 2.15146 h -0.33762 z"
         style="font-size:3.52777767px;stroke-width:0.26458332"
         id="path3963" />
      <path
         d="m 77.591778,284.00012 q 0.111966,0.0379 0.217041,0.16192 0.106798,0.12402 0.213596,0.34106 l 0.353122,0.7028 h -0.373793 l -0.329006,-0.65973 q -0.127469,-0.25839 -0.248047,-0.34279 -0.118856,-0.0844 -0.325562,-0.0844 h -0.37896 v 1.08693 h -0.347955 v -2.57176 h 0.785482 q 0.440972,0 0.658013,0.18431 0.217041,0.18431 0.217041,0.55638 0,0.24288 -0.113688,0.40308 -0.111966,0.1602 -0.327284,0.22221 z m -0.871609,-1.08004 v 0.91295 h 0.437527 q 0.251492,0 0.37896,-0.11541 0.129192,-0.11713 0.129192,-0.34279 0,-0.22565 -0.129192,-0.33934 -0.127468,-0.11541 -0.37896,-0.11541 z"
         style="font-size:3.52777767px;stroke-width:0.26458332"
         id="path3965" />
      <path
         d="m 78.785503,282.63414 h 0.349678 v 1.56235 q 0,0.41341 0.149861,0.596 0.149862,0.18087 0.485759,0.18087 0.334174,0 0.484036,-0.18087 0.149861,-0.18259 0.149861,-0.596 v -1.56235 h 0.349677 v 1.60541 q 0,0.50299 -0.249769,0.75965 -0.248047,0.25666 -0.733805,0.25666 -0.487481,0 -0.737251,-0.25666 -0.248047,-0.25666 -0.248047,-0.75965 z"
         style="font-size:3.52777767px;stroke-width:0.26458332"
         id="path3967" />
      <path
         d="m 83.045364,284.16204 v 0.15503 h -1.457275 q 0.02067,0.32728 0.19637,0.49954 0.177423,0.17053 0.492649,0.17053 0.18259,0 0.353122,-0.0448 0.172255,-0.0448 0.341065,-0.13436 v 0.29973 q -0.170533,0.0723 -0.349678,0.11024 -0.179145,0.0379 -0.363457,0.0379 -0.461643,0 -0.732083,-0.26872 -0.268717,-0.26872 -0.268717,-0.72692 0,-0.4737 0.254937,-0.75103 0.256659,-0.27905 0.690741,-0.27905 0.389296,0 0.61495,0.25149 0.227376,0.24977 0.227376,0.68041 z m -0.316949,-0.093 q -0.0034,-0.2601 -0.146416,-0.41513 -0.141249,-0.15503 -0.375516,-0.15503 -0.265272,0 -0.425469,0.14986 -0.158474,0.14986 -0.18259,0.42202 z"
         style="font-size:3.52777767px;stroke-width:0.26458332"
         id="path3969" />
      <path
         d="m 83.579354,282.63414 h 0.518487 l 0.65629,1.75011 0.659736,-1.75011 h 0.518487 v 2.57176 h -0.339342 v -2.25826 l -0.663181,1.76389 h -0.349677 l -0.663181,-1.76389 v 2.25826 h -0.337619 z"
         style="font-size:3.52777767px;stroke-width:0.26458332"
         id="path3971" />
      <path
         d="m 87.487814,284.23611 q -0.384128,0 -0.532267,0.0879 -0.148139,0.0879 -0.148139,0.29972 0,0.16881 0.110243,0.26872 0.111965,0.0982 0.303168,0.0982 0.26355,0 0.422024,-0.18603 0.160197,-0.18776 0.160197,-0.49782 v -0.0706 z m 0.632175,-0.13092 v 1.10071 H 87.80304 v -0.29283 q -0.10852,0.1757 -0.27044,0.2601 -0.161919,0.0827 -0.396186,0.0827 -0.296278,0 -0.471978,-0.16537 -0.173977,-0.16709 -0.173977,-0.44614 0,-0.32556 0.217041,-0.49092 0.218763,-0.16537 0.651123,-0.16537 h 0.444417 v -0.031 q 0,-0.21877 -0.144694,-0.33762 -0.142971,-0.12058 -0.403076,-0.12058 -0.165365,0 -0.322116,0.0396 -0.156752,0.0396 -0.301446,0.11885 v -0.29283 q 0.173977,-0.0672 0.337619,-0.0999 0.163642,-0.0344 0.318671,-0.0344 0.418579,0 0.625285,0.21704 0.206706,0.21704 0.206706,0.65801 z"
         style="font-size:3.52777767px;stroke-width:0.26458332"
         id="path3973" />
      <path
         d="m 90.162931,283.35072 v 0.29628 q -0.134358,-0.0741 -0.27044,-0.11025 -0.134358,-0.0379 -0.272162,-0.0379 -0.308336,0 -0.478868,0.19637 -0.170533,0.19465 -0.170533,0.54777 0,0.35312 0.170533,0.54949 0.170532,0.19465 0.478868,0.19465 0.137804,0 0.272162,-0.0362 0.136082,-0.0379 0.27044,-0.11197 v 0.29283 q -0.132636,0.062 -0.275607,0.093 -0.141249,0.031 -0.301446,0.031 -0.435805,0 -0.692464,-0.27389 -0.25666,-0.27388 -0.25666,-0.73897 0,-0.47198 0.258382,-0.74242 0.260105,-0.27044 0.711412,-0.27044 0.146417,0 0.285943,0.031 0.139527,0.0293 0.27044,0.0896 z"
         style="font-size:3.52777767px;stroke-width:0.26458332"
         id="path3975" />
    </g>
    <g
       aria-label="NRUePhy"
       style="font-style:normal;font-weight:normal;font-size:10.58333302px;line-height:1.25;font-family:sans-serif;letter-spacing:0px;word-spacing:0px;opacity:1;fill:#000000;fill-opacity:1;stroke:none;stroke-width:0.26458332"
       id="text2428-7-4-5-7-9">
      <path
         d="m 74.022654,289.36424 h 0.468533 l 1.140327,2.15146 v -2.15146 h 0.337619 V 291.936 H 75.5006 l -1.140326,-2.15146 v 2.15146 h -0.33762 z"
         style="font-size:3.52777767px;stroke-width:0.26458332"
         id="path3948" />
      <path
         d="m 77.881161,290.73022 q 0.111966,0.0379 0.217041,0.16192 0.106798,0.12402 0.213596,0.34107 l 0.353122,0.70279 h -0.373793 l -0.329006,-0.65973 q -0.127469,-0.25838 -0.248047,-0.34279 -0.118856,-0.0844 -0.325562,-0.0844 h -0.37896 v 1.08692 h -0.347955 v -2.57176 h 0.785482 q 0.440972,0 0.658013,0.18431 0.217041,0.18432 0.217041,0.55639 0,0.24288 -0.113688,0.40307 -0.111966,0.1602 -0.327284,0.22221 z m -0.871609,-1.08004 v 0.91295 h 0.437527 q 0.251492,0 0.37896,-0.11541 0.129191,-0.11713 0.129191,-0.34278 0,-0.22566 -0.129191,-0.33935 -0.127468,-0.11541 -0.37896,-0.11541 z"
         style="font-size:3.52777767px;stroke-width:0.26458332"
         id="path3950" />
      <path
         d="m 79.074886,289.36424 h 0.349678 v 1.56235 q 0,0.41341 0.149861,0.596 0.149862,0.18087 0.485759,0.18087 0.334174,0 0.484036,-0.18087 0.149861,-0.18259 0.149861,-0.596 v -1.56235 h 0.349677 v 1.60542 q 0,0.50298 -0.249769,0.75964 -0.248047,0.25666 -0.733805,0.25666 -0.487481,0 -0.737251,-0.25666 -0.248047,-0.25666 -0.248047,-0.75964 z"
         style="font-size:3.52777767px;stroke-width:0.26458332"
         id="path3952" />
      <path
         d="m 83.334747,290.89214 v 0.15503 h -1.457275 q 0.02067,0.32728 0.19637,0.49954 0.177423,0.17053 0.492649,0.17053 0.18259,0 0.353122,-0.0448 0.172255,-0.0448 0.341064,-0.13435 v 0.29972 q -0.170532,0.0723 -0.349677,0.11024 -0.179145,0.0379 -0.363457,0.0379 -0.461643,0 -0.732083,-0.26872 -0.268717,-0.26872 -0.268717,-0.72691 0,-0.4737 0.254937,-0.75103 0.256659,-0.27906 0.690741,-0.27906 0.389296,0 0.61495,0.25149 0.227376,0.24977 0.227376,0.68041 z m -0.316949,-0.093 q -0.0034,-0.2601 -0.146416,-0.41513 -0.141249,-0.15503 -0.375516,-0.15503 -0.265272,0 -0.425469,0.14986 -0.158474,0.14986 -0.18259,0.42203 z"
         style="font-size:3.52777767px;stroke-width:0.26458332"
         id="path3954" />
      <path
         d="m 84.216692,289.65018 v 0.96635 h 0.437527 q 0.242879,0 0.375515,-0.12574 0.132636,-0.12575 0.132636,-0.35829 0,-0.23082 -0.132636,-0.35657 -0.132636,-0.12575 -0.375515,-0.12575 z m -0.347955,-0.28594 h 0.785482 q 0.432359,0 0.652845,0.19637 0.222209,0.19465 0.222209,0.57189 0,0.38068 -0.222209,0.57533 -0.220486,0.19465 -0.652845,0.19465 h -0.437527 v 1.03352 h -0.347955 z"
         style="font-size:3.52777767px;stroke-width:0.26458332"
         id="path3956" />
      <path
         d="m 87.587717,290.77156 v 1.16444 h -0.316949 v -1.1541 q 0,-0.27389 -0.106798,-0.40997 -0.106798,-0.13608 -0.320394,-0.13608 -0.256659,0 -0.404799,0.16364 -0.148139,0.16364 -0.148139,0.44614 v 1.09037 h -0.318671 v -2.68028 h 0.318671 v 1.05075 q 0.113689,-0.17397 0.266995,-0.2601 0.15503,-0.0861 0.356568,-0.0861 0.332451,0 0.502984,0.20671 0.170532,0.20498 0.170532,0.60461 z"
         style="font-size:3.52777767px;stroke-width:0.26458332"
         id="path3958" />
      <path
         d="m 89.026044,292.11515 q -0.134358,0.34451 -0.261827,0.44958 -0.127468,0.10508 -0.341064,0.10508 h -0.253215 v -0.26527 h 0.186035 q 0.130914,0 0.203261,-0.062 0.07235,-0.062 0.160197,-0.29284 l 0.05684,-0.14469 -0.780314,-1.89825 h 0.335897 l 0.602891,1.50895 0.602892,-1.50895 h 0.335897 z"
         style="font-size:3.52777767px;stroke-width:0.26458332"
         id="path3960" />
    </g>
    <path
       style="fill:none;stroke:#000000;stroke-width:0.26458332px;stroke-linecap:butt;stroke-linejoin:miter;stroke-opacity:1"
       d="m 13.985119,264.49403 v 2.64583"
       id="path10019"
       inkscape:connector-curvature="0" />
    <path
       style="fill:none;stroke:#000000;stroke-width:0.26458332px;stroke-linecap:butt;stroke-linejoin:miter;stroke-opacity:1"
       d="m 7.2760415,274.03793 v 6.3311"
       id="path10021"
       inkscape:connector-curvature="0" />
    <path
       style="fill:none;stroke:#000000;stroke-width:0.26458332px;stroke-linecap:butt;stroke-linejoin:miter;stroke-opacity:1"
       d="m 15.415166,274.08517 v 5.29167"
       id="path10023"
       inkscape:connector-curvature="0" />
    <path
       style="fill:none;stroke:#000000;stroke-width:0.26458332px;stroke-linecap:butt;stroke-linejoin:miter;stroke-opacity:1"
       d="m 24.426711,274.17967 v 4.39397"
       id="path10025"
       inkscape:connector-curvature="0" />
    <path
       style="fill:none;stroke:#000000;stroke-width:0.27619603px;stroke-linecap:butt;stroke-linejoin:miter;stroke-opacity:1"
       d="m 71.677789,273.11731 v 6.89905"
       id="path10021-4"
       inkscape:connector-curvature="0" />
    <path
       style="fill:none;stroke:#000000;stroke-width:0.28157714px;stroke-linecap:butt;stroke-linejoin:miter;stroke-opacity:1"
       d="m 79.816913,273.16455 v 5.99325"
       id="path10023-8"
       inkscape:connector-curvature="0" />
    <path
       style="fill:none;stroke:#000000;stroke-width:0.28305009px;stroke-linecap:butt;stroke-linejoin:miter;stroke-opacity:1"
       d="m 88.828458,273.25905 v 5.02874"
       id="path10025-1"
       inkscape:connector-curvature="0" />
    <path
       style="fill:none;stroke:#000000;stroke-width:0.2898812px;stroke-linecap:butt;stroke-linejoin:miter;stroke-opacity:1"
       d="M 28.253059,289.7837 H 36.05867"
       id="path6714-0"
       inkscape:connector-curvature="0" />
    <path
       style="fill:none;stroke:#000000;stroke-width:0.27458924px;stroke-linecap:butt;stroke-linejoin:miter;stroke-opacity:1"
       d="M 29.054868,287.24465 H 36.05867"
       id="path6714-3"
       inkscape:connector-curvature="0" />
    <path
       style="fill:none;stroke:#000000;stroke-width:0.26137164px;stroke-linecap:butt;stroke-linejoin:miter;stroke-opacity:1"
       d="m 69.558323,280.65511 -2.727034,-2.72703 v 13.95846"
       id="path10087"
       inkscape:connector-curvature="0" />
    <path
       style="fill:none;stroke:#000000;stroke-width:0.22194324px;stroke-linecap:butt;stroke-linejoin:miter;stroke-opacity:1"
       d="m 94.50637,280.4546 -4.486169,-2.59008"
       id="path10089"
       inkscape:connector-curvature="0" />
    <path
       style="fill:none;stroke:#000000;stroke-width:0.26510772px;stroke-linecap:butt;stroke-linejoin:miter;stroke-opacity:1"
       d="M 66.831289,277.92808 H 90.077284"
       id="path10091"
       inkscape:connector-curvature="0" />
    <path
       style="fill:none;stroke:#000000;stroke-width:0.26750293px;stroke-linecap:butt;stroke-linejoin:miter;stroke-opacity:1"
       d="M 68.508185,279.65495 H 93.13039"
       id="path10093"
       inkscape:connector-curvature="0" />
    <path
       style="fill:none;stroke:#000000;stroke-width:0.26653433px;stroke-linecap:butt;stroke-linejoin:miter;stroke-opacity:1"
       d="M 91.528745,278.7223 H 67.65921 v 13.93046"
       id="path10095"
       inkscape:connector-curvature="0" />
    <path
       style="fill:none;stroke:#000000;stroke-width:0.26530305px;stroke-linecap:butt;stroke-linejoin:miter;stroke-opacity:1"
       d="m 68.508185,279.65495 v 13.87296"
       id="path10097"
       inkscape:connector-curvature="0" />
    <path
       style="fill:none;stroke:#000000;stroke-width:0.25170138px;stroke-linecap:butt;stroke-linejoin:miter;stroke-opacity:1"
       d="m 69.400481,294.47167 -2.569192,-2.58513"
       id="path10099"
       inkscape:connector-curvature="0" />
    <path
       style="fill:none;stroke:#000000;stroke-width:0.26386043px;stroke-linecap:butt;stroke-linejoin:miter;stroke-opacity:1"
       d="m 62.791702,286.98361 h 4.416985"
       id="path10101"
       inkscape:connector-curvature="0" />
    <path
       style="fill:none;stroke:#000000;stroke-width:0.29578164px;stroke-linecap:butt;stroke-linejoin:miter;stroke-opacity:1"
       d="M 62.008073,289.62944 H 68.14888"
       id="path10103"
       inkscape:connector-curvature="0" />
    <path
       style="fill:none;stroke:#000000;stroke-width:0.29506928px;stroke-linecap:butt;stroke-linejoin:miter;stroke-opacity:1"
       d="m 61.191035,292.36977 h 7.874124"
       id="path10105"
       inkscape:connector-curvature="0" />
    <path
       style="fill:none;stroke:#000000;stroke-width:0.25170138px;stroke-linecap:butt;stroke-linejoin:miter;stroke-opacity:1"
       d="m 69.32031,287.47297 -2.569191,-2.58513"
       id="path10099-0"
       inkscape:connector-curvature="0" />
    <path
       style="fill:none;stroke:#000000;stroke-width:0.26458332px;stroke-linecap:butt;stroke-linejoin:miter;stroke-opacity:1"
       d="m 80.047223,263.45766 v 2.60587"
       id="path10277"
       inkscape:connector-curvature="0" />
    <path
       style="fill:none;stroke:#000000;stroke-width:0.268;stroke-linecap:butt;stroke-linejoin:miter;stroke-miterlimit:4;stroke-dasharray:0.268,0.268;stroke-opacity:1;stroke-dashoffset:0"
       d="M 60.854612,295.88011 63.425719,293.309"
       id="path9293-4"
       inkscape:connector-curvature="0" />
    <path
       style="fill:none;stroke:#000000;stroke-width:0.27412808;stroke-linecap:butt;stroke-linejoin:miter;stroke-miterlimit:4;stroke-dasharray:0.27412807, 0.27412807;stroke-dashoffset:0;stroke-opacity:1"
       d="m 60.787794,237.48171 2.637923,-2.6219"
       id="path9293-4-4"
       inkscape:connector-curvature="0" />
    <path
       style="fill:none;stroke:#000000;stroke-width:0.268;stroke-linecap:butt;stroke-linejoin:miter;stroke-opacity:1;stroke-miterlimit:4;stroke-dasharray:0.268,0.268;stroke-dashoffset:0"
       d="M 63.425717,293.309 V 234.85981"
       id="path10397"
       inkscape:connector-curvature="0" />
    <path
       style="fill:none;stroke:#000000;stroke-width:0.26800001;stroke-linecap:butt;stroke-linejoin:miter;stroke-miterlimit:4;stroke-dasharray:0.268, 0.268;stroke-dashoffset:0;stroke-opacity:1"
       d="m 35.95285,237.42751 2.571107,-2.57111"
       id="path9293-4-4-4"
       inkscape:connector-curvature="0" />
    <path
       style="fill:none;stroke:#000000;stroke-width:0.26800002;stroke-linecap:butt;stroke-linejoin:miter;stroke-opacity:1;stroke-miterlimit:4;stroke-dasharray:0.26800002,0.26800002;stroke-dashoffset:0"
       d="M 38.523957,234.8564 H 63.376285"
       id="path10414"
       inkscape:connector-curvature="0" />
    <path
       style="fill:none;stroke:#000000;stroke-width:0.26800001;stroke-linecap:butt;stroke-linejoin:miter;stroke-miterlimit:4;stroke-dasharray:0.26800002, 0.26800002;stroke-dashoffset:0;stroke-opacity:1"
       d="M 37.620055,235.69503 H 62.472383"
       id="path10414-4"
       inkscape:connector-curvature="0" />
    <path
       style="fill:none;stroke:#000000;stroke-width:0.26800001;stroke-linecap:butt;stroke-linejoin:miter;stroke-miterlimit:4;stroke-dasharray:0.26800002, 0.26800002;stroke-dashoffset:0;stroke-opacity:1"
       d="m 36.751429,236.53025 h 24.852328 l 0,58.67434"
       id="path10414-7"
       inkscape:connector-curvature="0" />
    <path
       style="fill:none;stroke:#000000;stroke-width:0.26800002;stroke-linecap:butt;stroke-linejoin:miter;stroke-opacity:1;stroke-miterlimit:4;stroke-dasharray:0.26800002,0.26800002;stroke-dashoffset:0"
       d="m 62.472381,235.69503 v 58.49862"
       id="path10437"
       inkscape:connector-curvature="0" />
  </g>
</svg>
